<svg xmlns="http://www.w3.org/2000/svg" xmlns:xlink="http://www.w3.org/1999/xlink" xmlns:ifc="http://www.ifcopenshell.org/ns" width="102.425mm" height="141.667mm" viewBox="0 0 102.425 141.667">
    <defs>
        <marker id="arrowend" markerWidth="10" markerHeight="7" refX="10" refY="3.5" orient="auto">
          <polygon points="0 0, 10 3.5, 0 7"/>
        </marker>
        <marker id="arrowstart" markerWidth="10" markerHeight="7" refX="0" refY="3.5" orient="auto">
          <polygon points="10 0, 0 3.5, 10 7"/>
        </marker>
    </defs>
    <g ifc:name="Elevation ENLARGED PLAN - BATHROOM" class="section" ifc:plane="[[1.000000,0.000000,0.000000,0.000000],[0.000000,1.000000,0.000000,0.000000],[0.000000,0.000000,1.000000,1.066800],[0.000000,0.000000,0.000000,1.000000]]" ifc:matrix3="[[41.666668,0.000000,110.079836],[0.000000,41.666668,2596.141241],[0.000000,0.000000,1.000000]]">
        <g class="projection">
            <path d="M21.9856,94.7299 L21.9856,95.7882"/>
            <path d="M21.8533,94.7299 L21.9856,94.7299"/>
            <path d="M21.8533,129.655 L21.8533,94.7299"/>
            <path d="M85.3533,94.7299 L85.3533,115.118"/>
            <path d="M85.3533,129.655 L85.3533,129.655"/>
            <path d="M85.221,94.7299 L85.3533,94.7299"/>
            <path d="M85.221,95.7882 L85.221,94.7299"/>
            <path d="M21.9856,95.7882 L85.221,95.7882"/>
            <path d="M117.897,2.53897 L117.897,7.56605"/>
            <path d="M56.9357,2.53893 L117.897,2.53897"/>
            <path d="M56.9357,2.53893 L56.9357,7.56601"/>
            <path d="M117.897,7.56605 L56.9357,7.56601"/>
            <path d="M20.9524,7.56598 L-12.9393,7.56596"/>
            <path d="M20.9524,7.56598 L20.9524,2.5389"/>
            <path d="M-12.9393,2.53888 L20.9524,2.5389"/>
            <path d="M-12.9393,7.56596 L-12.9393,2.53888"/>
            <path d="M92.4971,7.56612 L92.497,129.655"/>
            <path d="M85.3534,7.56611 L92.4971,7.56612"/>
            <path d="M85.3533,129.655 L85.3534,7.56611"/>
            <path d="M92.497,129.655 L85.3533,129.655"/>
            <path d="M93.9974,129.655 L132.097,129.655"/>
            <path d="M93.9974,137.063 L93.9974,129.655"/>
            <path d="M132.097,137.063 L93.9974,137.063"/>
            <path d="M132.097,129.655 L132.097,137.063"/>
            <path d="M132.097,137.063 L132.097,129.655"/>
            <path d="M132.097,137.063 L143.864,137.063"/>
            <path d="M143.864,129.655 L143.864,137.063"/>
            <path d="M132.097,129.655 L143.864,129.655"/>
            <path d="M143.864,129.655 L194.664,129.655"/>
            <path d="M143.864,137.063 L194.664,137.063"/>
            <path d="M194.664,129.655 L194.664,137.063"/>
            <path d="M194.664,137.063 L519.941,137.063"/>
            <path d="M519.941,137.063 L519.941,129.655"/>
            <path d="M194.664,129.655 L519.941,129.655"/>
            <path d="M-98.2095,129.655 L-47.4095,129.655"/>
            <path d="M-98.2095,137.063 L-47.4095,137.063"/>
            <path d="M-47.4095,129.655 L-47.4095,137.063"/>
            <path d="M-47.4095,137.063 L93.9974,137.063"/>
            <path d="M93.9974,129.655 L93.9974,137.063"/>
            <path d="M-47.4095,129.655 L93.9974,129.655"/>
            <path d="M-168.878,137.063 L-98.2095,137.063"/>
            <path d="M-98.2095,129.655 L-98.2095,137.063"/>
            <path d="M-168.878,129.655 L-98.2095,129.655"/>
            <path d="M-168.878,137.063 L-168.878,129.655"/>
            <path d="M17.4877,7.56596 L17.4877,129.655"/>
            <path d="M12.4606,7.56596 L17.4877,7.56596"/>
            <path d="M12.4606,129.655 L12.4606,7.56596"/>
            <path d="M17.4877,129.655 L12.4606,129.655"/>
            <path d="M387.352,-12.5652 L387.352,50.823"/>
            <path d="M445.584,-12.5652 L387.352,-12.5652"/>
            <path d="M445.584,93.305 L445.584,-12.5652"/>
            <path d="M450.611,93.305 L445.584,93.305"/>
            <path d="M450.611,14.3134 L450.611,93.305"/>
            <path d="M512.533,14.3134 L450.611,14.3134"/>
            <path d="M512.533,129.655 L512.533,14.3134"/>
            <path d="M862.038,-569.084 L862.038,-54.0327"/>
            <path d="M311.458,-569.084 L862.038,-569.084"/>
            <path d="M311.458,-365.524 L311.458,-569.084"/>
            <path d="M-166.496,-365.524 L311.458,-365.524"/>
            <path d="M-166.496,129.655 L-166.496,-365.524"/>
            <path d="M517.56,-54.0327 L517.56,129.655"/>
            <path d="M862.038,-54.0327 L517.56,-54.0327"/>
            <path d="M17.6428,-14.4239 L12.6157,-14.4239"/>
            <path d="M12.6157,-14.4239 L12.6157,2.53882"/>
            <path d="M12.6157,2.53882 L17.6428,2.53882"/>
            <path d="M17.6428,-14.4239 L17.6428,2.53882"/>
            <path d="M12.6158,-52.5239 L17.6428,-52.5239"/>
            <path d="M17.6428,-58.8737 L17.6428,-52.5239"/>
            <path d="M12.6158,-58.8737 L17.6428,-58.8737"/>
            <path d="M12.6158,-58.8737 L12.6158,-52.5239"/>
            <path d="M21.8533,94.7299 L21.8533,129.655"/>
            <path d="M16.8262,94.7299 L21.8533,94.7299"/>
            <path d="M16.8262,129.655 L16.8262,94.7299"/>
            <path d="M21.8533,129.655 L16.8262,129.655"/>
            <path d="M115.828,-365.524 L-166.496,-365.524"/>
            <path d="M115.828,-119.73 L115.828,-365.524"/>
            <path d="M310.697,-119.73 L115.828,-119.73"/>
            <path d="M310.697,50.8229 L310.697,-119.73"/>
            <path d="M387.352,50.823 L310.697,50.8229"/>
            <path d="M387.352,129.655 L387.352,50.823"/>
            <path d="M-166.496,-365.524 L-166.496,129.655"/>
            <path d="M66.5412,45.1886 L66.5411,20.748"/>
            <path d="M67.5995,44.1303 L67.5994,21.8063"/>
            <path d="M77.7032,44.1303 L77.7031,21.8063"/>
            <path d="M78.7615,45.1886 L66.5412,45.1886"/>
            <path d="M77.7032,44.1303 L67.5995,44.1303"/>
            <path d="M78.7615,20.748 L78.7615,45.1886"/>
            <path d="M66.5411,20.748 L67.5994,21.8063"/>
            <path d="M78.7615,20.748 L66.5411,20.748"/>
            <path d="M78.7615,20.748 L77.7031,21.8063"/>
            <path d="M77.7031,21.8063 L67.5994,21.8063"/>
            <path d="M59.9514,58.3682 L59.9514,58.3682"/>
            <path d="M85.3514,58.3682 L85.3514,58.3682"/>
            <path d="M59.9514,45.1886 L59.9514,58.3682"/>
            <path d="M59.9513,20.748 L59.9513,7.56821"/>
            <path d="M85.3514,58.3682 L59.9514,58.3682"/>
            <path d="M85.3512,7.56819 L59.9513,7.56821"/>
            <path d="M85.3513,7.5682 L85.3512,7.5682"/>
            <path d="M85.3513,7.5682 L85.3512,7.56819"/>
            <path d="M85.3514,58.3682 L85.3513,7.5682"/>
            <path d="M85.3514,58.3682 L85.3514,58.3682"/>
            <path d="M85.3514,58.3682 L85.3512,7.56819"/>
            <path d="M66.5411,20.748 L59.9513,20.748"/>
            <path d="M66.5412,45.1886 L59.9514,45.1886"/>
            <path d="M59.9514,45.1886 L59.9513,20.748"/>
            <path d="M85.3513,7.5682 L85.3512,7.5682"/>
            <path d="M85.3514,58.3682 L85.3513,7.5682"/>
            <path d="M85.3514,58.3682 L85.3514,58.3682"/>
            <path d="M590.917,228.221 L93.4093,228.221"/>
            <path d="M590.917,15.4791 L590.917,228.221"/>
            <path d="M610.71,15.4791 L590.917,15.4791"/>
            <path d="M610.71,-55.4349 L610.71,15.4791"/>
            <path d="M517.56,-54.0326 L610.71,-55.4349"/>
            <path d="M517.56,171.895 L517.56,137.063"/>
            <path d="M517.56,129.655 L517.56,-54.0326"/>
            <path d="M144.747,174.699 L517.56,171.895"/>
            <path d="M144.747,137.063 L144.747,174.699"/>
            <path d="M93.4093,228.221 L93.4093,137.063"/>
            <path d="M39.8951,38.1596 L42.6372,36.2813"/>
            <path d="M54.5058,20.5646 L55.562,17.4133"/>
            <path d="M36.9915,39.7769 L39.8951,38.1596"/>
            <path d="M53.1633,23.6051 L54.5058,20.5646"/>
            <path d="M33.951,41.1194 L36.9915,39.7769"/>
            <path d="M51.546,26.5087 L53.1633,23.6051"/>
            <path d="M30.7997,42.1756 L33.951,41.1194"/>
            <path d="M49.6677,29.2508 L51.546,26.5087"/>
            <path d="M20.9524,7.56596 L20.9523,43.5493"/>
            <path d="M27.5643,42.9366 L30.7997,42.1756"/>
            <path d="M47.5444,31.8078 L49.6677,29.2508"/>
            <path d="M56.7822,10.8861 L56.9357,7.56596"/>
            <path d="M24.2725,43.3958 L27.5643,42.9366"/>
            <path d="M45.1942,34.158 L47.5444,31.8078"/>
            <path d="M56.323,14.1779 L56.7822,10.8861"/>
            <path d="M20.9523,43.5493 L24.2725,43.3958"/>
            <path d="M42.6372,36.2813 L45.1942,34.158"/>
            <path d="M55.562,17.4133 L56.323,14.1779"/>
            <path d="M72.9545,77.1244 L73.0806,78.1913"/>
            <path d="M72.581,76.0985 L72.9545,77.1244"/>
            <path d="M71.9746,75.153 L72.581,76.0985"/>
            <path d="M71.1584,74.3243 L71.9746,75.153"/>
            <path d="M70.164,73.6442 L71.1584,74.3243"/>
            <path d="M69.0294,73.1388 L70.164,73.6442"/>
            <path d="M67.7983,72.8276 L69.0294,73.1388"/>
            <path d="M66.5181,72.7225 L67.7983,72.8276"/>
            <path d="M65.2378,72.8276 L66.5181,72.7225"/>
            <path d="M64.0067,73.1388 L65.2378,72.8276"/>
            <path d="M62.8721,73.6442 L64.0067,73.1388"/>
            <path d="M61.8777,74.3243 L62.8721,73.6442"/>
            <path d="M61.0615,75.153 L61.8777,74.3243"/>
            <path d="M60.4551,76.0985 L61.0615,75.153"/>
            <path d="M60.0816,77.1244 L60.4551,76.0985"/>
            <path d="M59.9556,78.1913 L60.0816,77.1244"/>
            <path d="M60.0817,79.2582 L59.9556,78.1913"/>
            <path d="M60.4551,80.2841 L60.0817,79.2582"/>
            <path d="M61.0615,81.2295 L60.4551,80.2841"/>
            <path d="M61.8777,82.0583 L61.0615,81.2295"/>
            <path d="M62.8721,82.7384 L61.8777,82.0583"/>
            <path d="M64.0067,83.2437 L62.8721,82.7384"/>
            <path d="M65.2378,83.5549 L64.0067,83.2437"/>
            <path d="M66.5181,83.66 L65.2378,83.5549"/>
            <path d="M67.7983,83.5549 L66.5181,83.66"/>
            <path d="M69.0294,83.2437 L67.7983,83.5549"/>
            <path d="M70.164,82.7384 L69.0294,83.2437"/>
            <path d="M71.1584,82.0583 L70.164,82.7384"/>
            <path d="M71.9746,81.2295 L71.1584,82.0583"/>
            <path d="M72.581,80.2841 L71.9746,81.2295"/>
            <path d="M72.9545,79.2582 L72.581,80.2841"/>
            <path d="M73.0806,78.1913 L72.9545,79.2582"/>
            <path d="M68.8325,70.3246 L71.3931,70.1704"/>
            <path d="M66.3703,70.781 L68.8325,70.3246"/>
            <path d="M64.1012,71.5222 L66.3703,70.781"/>
            <path d="M63.0666,71.9911 L64.1012,71.5222"/>
            <path d="M62.1123,72.5197 L63.0666,71.9911"/>
            <path d="M61.2473,73.1029 L62.1123,72.5197"/>
            <path d="M60.48,73.7351 L61.2473,73.1029"/>
            <path d="M59.8178,74.4103 L60.48,73.7351"/>
            <path d="M59.2671,75.1218 L59.8178,74.4103"/>
            <path d="M58.8332,75.863 L59.2671,75.1218"/>
            <path d="M58.5202,76.6265 L58.8332,75.863"/>
            <path d="M58.3313,77.4051 L58.5202,76.6265"/>
            <path d="M58.2681,78.1913 L58.3313,77.4051"/>
            <path d="M58.3313,78.9775 L58.2681,78.1913"/>
            <path d="M58.5202,79.7561 L58.3313,78.9775"/>
            <path d="M58.8332,80.5196 L58.5202,79.7561"/>
            <path d="M59.2671,81.2607 L58.8332,80.5196"/>
            <path d="M59.8178,81.9723 L59.2671,81.2607"/>
            <path d="M60.48,82.6474 L59.8178,81.9723"/>
            <path d="M61.2473,83.2796 L60.48,82.6474"/>
            <path d="M62.1123,83.8629 L61.2473,83.2796"/>
            <path d="M63.0666,84.3915 L62.1123,83.8629"/>
            <path d="M64.1012,84.8604 L63.0666,84.3915"/>
            <path d="M66.3703,85.6016 L64.1012,84.8604"/>
            <path d="M68.8325,86.058 L66.3703,85.6016"/>
            <path d="M71.3931,86.2121 L68.8325,86.058"/>
            <path d="M77.0181,85.0663 L71.3931,86.2121"/>
            <path d="M77.0181,71.3163 L77.0181,85.0663"/>
            <path d="M71.3931,70.1704 L77.0181,71.3163"/>
            <path d="M85.3514,89.6496 L85.3514,66.7329"/>
            <path d="M77.0181,89.6496 L85.3514,89.6496"/>
            <path d="M77.0181,66.7329 L77.0181,89.6496"/>
            <path d="M85.3514,66.7329 L77.0181,66.7329"/>
            <path d="M21.9856,129.523 L85.221,129.523"/>
            <path d="M21.9856,94.7299 L21.9856,129.523"/>
            <path d="M21.8533,94.7299 L21.9856,94.7299"/>
            <path d="M21.8533,129.655 L21.8533,94.7299"/>
            <path d="M48.399,129.655 L21.8533,129.655"/>
            <path d="M85.3533,94.7299 L85.3533,129.655"/>
            <path d="M85.221,94.7299 L85.3533,94.7299"/>
            <path d="M85.221,129.523 L85.221,94.7299"/>
            <path d="M76.0267,110.968 L75.6706,111.241"/>
            <path d="M76.4415,110.796 L76.0267,110.968"/>
            <path d="M76.8866,110.737 L76.4415,110.796"/>
            <path d="M77.3317,110.796 L76.8866,110.737"/>
            <path d="M77.7465,110.968 L77.3317,110.796"/>
            <path d="M78.1027,111.241 L77.7465,110.968"/>
            <path d="M78.376,111.597 L78.1027,111.241"/>
            <path d="M78.5478,112.012 L78.376,111.597"/>
            <path d="M78.6064,112.457 L78.5478,112.012"/>
            <path d="M78.5478,112.902 L78.6064,112.457"/>
            <path d="M78.376,113.317 L78.5478,112.902"/>
            <path d="M78.1027,113.673 L78.376,113.317"/>
            <path d="M77.7465,113.946 L78.1027,113.673"/>
            <path d="M77.3318,114.118 L77.7465,113.946"/>
            <path d="M76.8866,114.177 L77.3318,114.118"/>
            <path d="M76.4415,114.118 L76.8866,114.177"/>
            <path d="M76.0267,113.946 L76.4415,114.118"/>
            <path d="M75.6706,113.673 L76.0267,113.946"/>
            <path d="M75.3973,113.317 L75.6706,113.673"/>
            <path d="M75.2254,112.902 L75.3973,113.317"/>
            <path d="M75.1668,112.457 L75.2254,112.902"/>
            <path d="M75.2254,112.012 L75.1668,112.457"/>
            <path d="M75.3972,111.597 L75.2254,112.012"/>
            <path d="M75.6706,111.241 L75.3972,111.597"/>
            <path d="M61.5408,127.274 L45.6658,127.274"/>
            <path d="M45.6658,126.215 L61.5408,126.215"/>
            <path d="M81.0587,125.157 L84.0304,122.002"/>
            <path d="M61.5408,125.157 L81.0587,125.157"/>
            <path d="M61.5408,128.332 L61.5408,125.157"/>
            <path d="M34.9961,123.917 L33.9635,123.391"/>
            <path d="M36.1408,124.099 L34.9961,123.917"/>
            <path d="M77.4158,124.099 L36.1408,124.099"/>
            <path d="M78.5604,123.917 L77.4158,124.099"/>
            <path d="M79.593,123.391 L78.5604,123.917"/>
            <path d="M80.4125,122.572 L79.593,123.391"/>
            <path d="M80.9387,121.539 L80.4125,122.572"/>
            <path d="M81.12,120.394 L80.9387,121.539"/>
            <path d="M81.12,105.842 L81.12,120.394"/>
            <path d="M80.9387,104.698 L81.12,105.842"/>
            <path d="M80.4125,103.665 L80.9387,104.698"/>
            <path d="M79.5931,102.846 L80.4125,103.665"/>
            <path d="M78.5605,102.32 L79.5931,102.846"/>
            <path d="M77.4158,102.138 L78.5605,102.32"/>
            <path d="M36.1408,102.138 L77.4158,102.138"/>
            <path d="M34.9962,102.32 L36.1408,102.138"/>
            <path d="M33.9635,102.846 L34.9962,102.32"/>
            <path d="M33.1441,103.665 L33.9635,102.846"/>
            <path d="M32.6179,104.698 L33.1441,103.665"/>
            <path d="M32.4366,105.842 L32.6179,104.698"/>
            <path d="M32.4366,120.394 L32.4366,105.842"/>
            <path d="M32.6179,121.539 L32.4366,120.394"/>
            <path d="M33.1441,122.572 L32.6179,121.539"/>
            <path d="M33.9635,123.391 L33.1441,122.572"/>
            <path d="M29.2481,125.084 L28.6244,124.917"/>
            <path d="M29.8915,125.14 L29.2481,125.084"/>
            <path d="M78.4573,125.14 L29.8915,125.14"/>
            <path d="M79.4161,125.014 L78.4573,125.14"/>
            <path d="M80.3094,124.644 L79.4161,125.014"/>
            <path d="M81.0766,124.055 L80.3094,124.644"/>
            <path d="M81.6652,123.288 L81.0766,124.055"/>
            <path d="M82.0353,122.395 L81.6652,123.288"/>
            <path d="M82.1615,121.436 L82.0353,122.395"/>
            <path d="M82.1615,103.239 L82.1615,121.436"/>
            <path d="M82.0353,102.28 L82.1615,103.239"/>
            <path d="M81.6653,101.386 L82.0353,102.28"/>
            <path d="M81.0766,100.619 L81.6653,101.386"/>
            <path d="M80.3094,100.031 L81.0766,100.619"/>
            <path d="M79.4161,99.6606 L80.3094,100.031"/>
            <path d="M78.4574,99.5344 L79.4161,99.6606"/>
            <path d="M29.2485,99.5906 L78.4574,99.5344"/>
            <path d="M28.6248,99.7577 L29.2485,99.5906"/>
            <path d="M28.0397,100.03 L28.6248,99.7577"/>
            <path d="M27.5108,100.401 L28.0397,100.03"/>
            <path d="M27.0542,100.857 L27.5108,100.401"/>
            <path d="M26.6838,101.386 L27.0542,100.857"/>
            <path d="M26.4108,101.971 L26.6838,101.386"/>
            <path d="M26.2436,102.595 L26.4108,101.971"/>
            <path d="M26.1873,103.239 L26.2436,102.595"/>
            <path d="M26.2436,122.079 L26.1873,103.239"/>
            <path d="M26.4106,122.703 L26.2436,122.079"/>
            <path d="M26.6835,123.288 L26.4106,122.703"/>
            <path d="M27.0538,123.817 L26.6835,123.288"/>
            <path d="M27.5103,124.273 L27.0538,123.817"/>
            <path d="M28.0392,124.644 L27.5103,124.273"/>
            <path d="M28.6244,124.917 L28.0392,124.644"/>
            <path d="M84.0304,125.096 L84.0304,95.7882"/>
            <path d="M80.7941,128.332 L84.0304,125.096"/>
            <path d="M26.3512,128.332 L80.7941,128.332"/>
            <path d="M23.1762,125.157 L26.3512,128.332"/>
            <path d="M23.1762,95.7882 L23.1762,125.157"/>
            <path d="M21.9856,95.7882 L23.1762,95.7882"/>
            <path d="M84.0304,95.7882 L21.9856,95.7882"/>
            <path d="M85.221,95.7882 L84.0304,95.7882"/>
            <path d="M26.4125,125.157 L23.1762,121.169"/>
            <path d="M45.6658,125.157 L26.4125,125.157"/>
            <path d="M45.6658,128.332 L45.6658,125.157"/>
        </g>
    <g id="product-5bc04d04-bafd-43a7-b502-5695dfdd5cda-body" class="IfcDoor material-MaterialConstituentSet rPsetCommon-StatusNEWid742310 material-278797IfcMaterialConstituentSetMaterialConstituentSet278795278796 cut" ifc:name="Door" ifc:guid="1Rm4q4klr3fxK2LfNVtLpQ">
            <path d="M20.9524,7.56596 L20.9523,43.5493 L24.2725,43.3958 L27.5643,42.9366 L30.7997,42.1756 L33.951,41.1194 L36.9915,39.7769 L39.8951,38.1596 L42.6372,36.2813 L45.1942,34.158 L47.5444,31.8078 L49.6677,29.2508 L51.546,26.5087 L53.1633,23.6051 L54.5058,20.5646 L55.562,17.4133 L56.323,14.1779 L56.7822,10.8861 L56.9357,7.56596"/>
        </g>
        <g class="3NLabw5wX0xAxdBbywqOwX rPsetCommon-StatusNEWid740970 0H0_od7V10JhlMbIqgoWO3 material-378564IfcMaterialLayerSet378563poche 14xr3H$0vEs9w4alECdOsi rPsetCommon-StatusNEWid740974 rPsetCommon-StatusNEWid764439 cut 1T7r512pb9hPEjURMceUG1 material-327866IfcMaterialLayerSet327862327864327865poche 2RiixbP2H6xRCVZ_birm$_ rPsetCommon-StatusNEWid740954 IfcWall 01f1YyjUT0O8BSNYzeBqnB material-poche rPsetCommon-StatusNEWid740948 rPsetCommon-StatusNEWid780668 material-812109IfcMaterialLayerSet812110812111812112poche"><path d="M12.6,-58.9 L12.6,-52.5 L17.6,-52.5 L17.6,-58.9 Z"/></g><g class="3NLabw5wX0xAxdBbywqOwX rPsetCommon-StatusNEWid740970 0H0_od7V10JhlMbIqgoWO3 material-378564IfcMaterialLayerSet378563poche 14xr3H$0vEs9w4alECdOsi rPsetCommon-StatusNEWid740974 rPsetCommon-StatusNEWid764439 cut 1T7r512pb9hPEjURMceUG1 material-327866IfcMaterialLayerSet327862327864327865poche 2RiixbP2H6xRCVZ_birm$_ rPsetCommon-StatusNEWid740954 IfcWall 01f1YyjUT0O8BSNYzeBqnB material-poche rPsetCommon-StatusNEWid740948 rPsetCommon-StatusNEWid780668 material-812109IfcMaterialLayerSet812110812111812112poche"><path d="M-12.9,2.5 L-12.9,7.6 L12.5,7.6 L12.5,129.7 L16.8,129.7 L17.5,129.7 L21.9,129.7 L21.9,94.7 L17.5,94.7 L17.5,7.6 L21.0,7.6 L21.0,2.5 L17.6,2.5 L17.6,-14.4 L12.6,-14.4 L12.6,2.5 Z"/></g><g class="3NLabw5wX0xAxdBbywqOwX rPsetCommon-StatusNEWid740970 0H0_od7V10JhlMbIqgoWO3 material-378564IfcMaterialLayerSet378563poche 14xr3H$0vEs9w4alECdOsi rPsetCommon-StatusNEWid740974 rPsetCommon-StatusNEWid764439 cut 1T7r512pb9hPEjURMceUG1 material-327866IfcMaterialLayerSet327862327864327865poche 2RiixbP2H6xRCVZ_birm$_ rPsetCommon-StatusNEWid740954 IfcWall 01f1YyjUT0O8BSNYzeBqnB material-poche rPsetCommon-StatusNEWid740948 rPsetCommon-StatusNEWid780668 material-812109IfcMaterialLayerSet812110812111812112poche"><path d="M56.9,7.6 L85.4,7.6 L85.4,129.7 L92.5,129.7 L92.5,7.6 L117.9,7.6 L117.9,2.5 L56.9,2.5 Z"/></g><g class="3NLabw5wX0xAxdBbywqOwX rPsetCommon-StatusNEWid740970 0H0_od7V10JhlMbIqgoWO3 material-378564IfcMaterialLayerSet378563poche 14xr3H$0vEs9w4alECdOsi rPsetCommon-StatusNEWid740974 rPsetCommon-StatusNEWid764439 cut 1T7r512pb9hPEjURMceUG1 material-327866IfcMaterialLayerSet327862327864327865poche 2RiixbP2H6xRCVZ_birm$_ rPsetCommon-StatusNEWid740954 IfcWall 01f1YyjUT0O8BSNYzeBqnB material-poche rPsetCommon-StatusNEWid740948 rPsetCommon-StatusNEWid780668 material-812109IfcMaterialLayerSet812110812111812112poche"><path d="M132.1,137.1 L132.1,129.7 L94.0,129.7 L94.0,137.1 Z"/></g><g class="material-378564IfcMaterialLayerSet378563poche cut 3mL1aLv6n4zQ_3eJTvQiSx IfcWall rPsetCommon-StatusEXISTINGid779946 material-poche"><path d="M-98.2,129.7 L-168.9,129.7 L-168.9,137.1 L-98.2,137.1 Z"/></g><g class="material-378564IfcMaterialLayerSet378563poche cut 3mL1aLv6n4zQ_3eJTvQiSx IfcWall rPsetCommon-StatusEXISTINGid779946 material-poche"><path d="M94.0,137.1 L94.0,129.7 L-47.4,129.7 L-47.4,137.1 Z"/></g><g class="material-378564IfcMaterialLayerSet378563poche cut 3mL1aLv6n4zQ_3eJTvQiSx IfcWall rPsetCommon-StatusEXISTINGid779946 material-poche"><path d="M143.9,137.1 L143.9,129.7 L132.1,129.7 L132.1,137.1 Z"/></g><g class="material-378564IfcMaterialLayerSet378563poche cut 3mL1aLv6n4zQ_3eJTvQiSx IfcWall rPsetCommon-StatusEXISTINGid779946 material-poche"><path d="M519.9,137.1 L519.9,129.7 L194.7,129.7 L194.7,137.1 Z"/></g><path d="M12.615774214267729,-58.87399117151896 L-161.4694206515948,-58.874309062957764 L-161.46946038802463,129.65470552444458 L-17.966494818528492,129.65470552444458 L-17.966415345668793,2.5385022163391113 L12.615754346052803,2.5385022163391113 Z" class="IfcSpace material-null"/><path d="M17.487659196058907,94.7297215461731 L21.853302061557766,94.7297215461731 L21.853302061557766,129.65454657872516 L85.35329167048137,129.65454657872516 L85.35337114334106,7.565796375274658 L17.487698932488758,7.565796375274658 Z" class="IfcSpace material-null"/><path d="M17.642839888731636,2.5385022163391113 L115.78041726350784,2.5385022163391113 L115.78047190109889,-107.95627037684122 L104.84606935580571,-107.95627037684122 L104.84622333447139,-360.49654086430866 L-161.4692815740903,-360.49685875574744 L-161.46940078337985,-63.901444276173905 L59.99920680125554,-63.9011263847351 L59.99921176830927,-58.87399117151896 L17.642839888731636,-58.87399117151896 Z" class="IfcSpace material-null"/></g>
</svg>