<svg xmlns="http://www.w3.org/2000/svg" xmlns:xlink="http://www.w3.org/1999/xlink" xmlns:ifc="http://www.ifcopenshell.org/ns" width="1312.5mm" height="1312.5mm" viewBox="0 0 1312.5 1312.5">
    <defs>
        <marker id="arrowend" markerWidth="10" markerHeight="7" refX="10" refY="3.5" orient="auto">
          <polygon points="0 0, 10 3.5, 0 7"/>
        </marker>
        <marker id="arrowstart" markerWidth="10" markerHeight="7" refX="0" refY="3.5" orient="auto">
          <polygon points="10 0, 0 3.5, 10 7"/>
        </marker>
    </defs>
    <g ifc:name="Elevation EXISTING" class="section" ifc:plane="[[0.499997,0.663414,-0.556674,-13.108071],[-0.866027,0.383018,-0.321394,-7.567910],[-0.000001,0.642790,0.766042,18.038102],[0.000000,0.000000,0.000000,1.000000]]" ifc:matrix3="[[10.416667,0.000000,1253.765197],[0.000000,10.416667,1002.576202],[0.000000,0.000000,1.000000]]">
        <g class="projection">
            <path d="M1246.73,1002.22 L1236.54,1015.74"/>
            <path d="M1247.25,1003.3 L1237.06,1016.82"/>
            <path d="M1247.19,1002.76 L1237,1016.28"/>
            <path d="M1247.25,1003.3 L1247.19,1002.76"/>
            <path d="M1246.73,1002.22 L1247.19,1002.76"/>
            <path d="M1245.7,1001.77 L1246.73,1002.22"/>
            <path d="M1235,1015.9 L1237.06,1016.82"/>
            <path d="M1235.06,1015.42 L1235,1015.9"/>
            <path d="M1235.51,1015.28 L1236.54,1015.74"/>
            <path d="M1237,1016.28 L1236.54,1015.74"/>
            <path d="M1237,1016.28 L1237.06,1016.82"/>
            <path d="M1245.24,1001.9 L1245.7,1001.77"/>
            <path d="M1235.51,1015.28 L1245.7,1001.77"/>
            <path d="M1235.06,1015.42 L1235.51,1015.28"/>
            <path d="M1235.06,1015.42 L1245.24,1001.9"/>
            <path d="M1239.87,1021.01 L1239.87,1020.99"/>
            <path d="M1193.13,1000.33 L1193.13,1000.31"/>
            <path d="M1253.77,1002.58 L1253.77,1002.55"/>
            <path d="M1206.62,982.429 L1206.62,982.408"/>
            <path d="M1193.13,1000.31 L1193.53,999.785"/>
            <path d="M1193.53,999.785 L1239.58,1020.15"/>
            <path d="M1239.58,1020.15 L1252.68,1002.78"/>
            <path d="M1206.62,982.408 L1252.68,1002.78"/>
            <path d="M1207.02,981.882 L1206.62,982.408"/>
            <path d="M1253.77,1002.55 L1207.02,981.882"/>
            <path d="M1239.87,1020.99 L1253.77,1002.55"/>
            <path d="M1193.13,1000.31 L1239.87,1020.99"/>
            <path d="M1206.62,982.429 L1252.67,1002.79"/>
            <path d="M1193.13,1000.33 L1239.87,1021.01"/>
            <path d="M1239.87,1021.01 L1253.77,1002.58"/>
            <path d="M919.292,628.976 L909.106,642.491"/>
            <path d="M919.808,630.054 L909.621,643.57"/>
            <path d="M919.751,629.519 L909.564,643.034"/>
            <path d="M919.808,630.054 L919.751,629.519"/>
            <path d="M919.292,628.976 L919.751,629.519"/>
            <path d="M918.261,628.52 L919.292,628.976"/>
            <path d="M907.559,642.658 L909.621,643.57"/>
            <path d="M907.617,642.173 L907.559,642.658"/>
            <path d="M908.075,642.035 L909.106,642.491"/>
            <path d="M909.564,643.034 L909.106,642.491"/>
            <path d="M909.564,643.034 L909.621,643.57"/>
            <path d="M917.803,628.657 L918.261,628.52"/>
            <path d="M908.075,642.035 L918.261,628.52"/>
            <path d="M907.617,642.173 L908.075,642.035"/>
            <path d="M907.617,642.173 L917.803,628.657"/>
            <path d="M912.436,647.761 L912.436,647.74"/>
            <path d="M926.327,629.331 L926.327,629.31"/>
            <path d="M879.186,609.184 L879.186,609.163"/>
            <path d="M865.692,627.067 L866.089,626.54"/>
            <path d="M866.089,626.54 L912.145,646.909"/>
            <path d="M912.145,646.909 L925.242,629.532"/>
            <path d="M879.186,609.163 L925.242,629.532"/>
            <path d="M879.583,608.636 L879.186,609.163"/>
            <path d="M926.327,629.31 L879.583,608.636"/>
            <path d="M912.436,647.74 L926.327,629.31"/>
            <path d="M865.692,627.067 L912.436,647.74"/>
            <path d="M879.186,609.184 L925.23,629.548"/>
            <path d="M912.436,647.761 L912.436,647.761"/>
            <path d="M912.436,647.761 L926.327,629.331"/>
            <path d="M905.402,647.406 L895.215,660.922"/>
            <path d="M905.917,648.485 L895.731,662"/>
            <path d="M905.86,647.949 L895.674,661.465"/>
            <path d="M905.917,648.485 L905.86,647.949"/>
            <path d="M905.402,647.406 L905.86,647.949"/>
            <path d="M904.371,646.95 L905.402,647.406"/>
            <path d="M893.669,661.088 L895.731,662"/>
            <path d="M893.726,660.603 L893.669,661.088"/>
            <path d="M894.184,660.466 L895.215,660.922"/>
            <path d="M895.674,661.465 L895.215,660.922"/>
            <path d="M895.674,661.465 L895.731,662"/>
            <path d="M903.912,647.088 L904.371,646.95"/>
            <path d="M894.184,660.466 L904.371,646.95"/>
            <path d="M893.726,660.603 L894.184,660.466"/>
            <path d="M893.726,660.603 L903.912,647.088"/>
            <path d="M898.545,666.192 L898.545,666.17"/>
            <path d="M912.436,647.761 L912.436,647.74"/>
            <path d="M865.295,627.614 L865.295,627.593"/>
            <path d="M851.802,645.497 L852.199,644.97"/>
            <path d="M852.199,644.97 L898.255,665.34"/>
            <path d="M898.255,665.34 L911.352,647.963"/>
            <path d="M865.295,627.593 L911.352,647.963"/>
            <path d="M865.692,627.067 L865.295,627.593"/>
            <path d="M912.436,647.74 L865.692,627.067"/>
            <path d="M898.545,666.17 L912.436,647.74"/>
            <path d="M851.802,645.497 L898.545,666.17"/>
            <path d="M865.295,627.614 L911.34,647.979"/>
            <path d="M898.545,666.192 L898.545,666.192"/>
            <path d="M898.545,666.192 L912.436,647.761"/>
            <path d="M891.511,665.837 L881.325,679.352"/>
            <path d="M892.027,666.915 L881.84,680.431"/>
            <path d="M891.97,666.379 L881.783,679.895"/>
            <path d="M892.027,666.915 L891.97,666.379"/>
            <path d="M891.511,665.837 L891.97,666.379"/>
            <path d="M890.48,665.381 L891.511,665.837"/>
            <path d="M879.778,679.519 L881.84,680.431"/>
            <path d="M879.835,679.034 L879.778,679.519"/>
            <path d="M880.294,678.896 L881.325,679.352"/>
            <path d="M881.783,679.895 L881.325,679.352"/>
            <path d="M881.783,679.895 L881.84,680.431"/>
            <path d="M890.022,665.518 L890.48,665.381"/>
            <path d="M880.294,678.896 L890.48,665.381"/>
            <path d="M879.835,679.034 L880.294,678.896"/>
            <path d="M879.835,679.034 L890.022,665.518"/>
            <path d="M884.655,684.622 L884.655,684.601"/>
            <path d="M898.545,666.192 L898.545,666.17"/>
            <path d="M851.405,646.045 L851.405,646.024"/>
            <path d="M837.911,663.928 L838.308,663.401"/>
            <path d="M838.308,663.401 L884.364,683.77"/>
            <path d="M884.364,683.77 L897.461,666.393"/>
            <path d="M851.405,646.024 L897.461,666.393"/>
            <path d="M851.802,645.497 L851.405,646.024"/>
            <path d="M898.545,666.17 L851.802,645.497"/>
            <path d="M884.655,684.601 L898.545,666.17"/>
            <path d="M837.911,663.928 L884.655,684.601"/>
            <path d="M851.405,646.045 L897.449,666.409"/>
            <path d="M884.655,684.622 L884.655,684.622"/>
            <path d="M884.655,684.622 L898.545,666.192"/>
            <path d="M877.621,684.267 L867.434,697.783"/>
            <path d="M878.136,685.345 L867.95,698.861"/>
            <path d="M878.079,684.81 L867.893,698.326"/>
            <path d="M878.136,685.345 L878.079,684.81"/>
            <path d="M877.621,684.267 L878.079,684.81"/>
            <path d="M876.59,683.811 L877.621,684.267"/>
            <path d="M865.888,697.949 L867.95,698.861"/>
            <path d="M865.945,697.464 L865.888,697.949"/>
            <path d="M866.403,697.327 L867.434,697.783"/>
            <path d="M867.893,698.326 L867.434,697.783"/>
            <path d="M867.893,698.326 L867.95,698.861"/>
            <path d="M876.131,683.949 L876.59,683.811"/>
            <path d="M866.403,697.327 L876.59,683.811"/>
            <path d="M865.945,697.464 L866.403,697.327"/>
            <path d="M865.945,697.464 L876.131,683.949"/>
            <path d="M870.764,703.053 L870.764,703.031"/>
            <path d="M884.655,684.622 L884.655,684.601"/>
            <path d="M837.514,664.475 L837.514,664.454"/>
            <path d="M824.021,682.358 L824.417,681.831"/>
            <path d="M824.417,681.831 L870.474,702.201"/>
            <path d="M870.474,702.201 L883.571,684.823"/>
            <path d="M837.514,664.454 L883.571,684.823"/>
            <path d="M837.911,663.928 L837.514,664.454"/>
            <path d="M884.655,684.601 L837.911,663.928"/>
            <path d="M870.764,703.031 L884.655,684.601"/>
            <path d="M824.021,682.358 L870.764,703.031"/>
            <path d="M837.514,664.475 L883.559,684.839"/>
            <path d="M870.764,703.053 L870.764,703.053"/>
            <path d="M870.764,703.053 L884.655,684.622"/>
            <path d="M863.73,702.698 L853.544,716.213"/>
            <path d="M864.246,703.776 L854.059,717.292"/>
            <path d="M864.188,703.24 L854.002,716.756"/>
            <path d="M864.246,703.776 L864.188,703.24"/>
            <path d="M863.73,702.698 L864.188,703.24"/>
            <path d="M862.699,702.241 L863.73,702.698"/>
            <path d="M851.997,716.379 L854.059,717.292"/>
            <path d="M852.054,715.895 L851.997,716.379"/>
            <path d="M852.513,715.757 L853.544,716.213"/>
            <path d="M854.002,716.756 L853.544,716.213"/>
            <path d="M854.002,716.756 L854.059,717.292"/>
            <path d="M862.241,702.379 L862.699,702.241"/>
            <path d="M852.513,715.757 L862.699,702.241"/>
            <path d="M852.054,715.895 L852.513,715.757"/>
            <path d="M852.054,715.895 L862.241,702.379"/>
            <path d="M856.874,721.483 L856.874,721.462"/>
            <path d="M810.13,700.81 L810.13,700.788"/>
            <path d="M823.624,682.906 L823.624,682.885"/>
            <path d="M810.13,700.788 L810.527,700.262"/>
            <path d="M810.527,700.262 L856.583,720.631"/>
            <path d="M856.583,720.631 L869.68,703.254"/>
            <path d="M823.624,682.885 L869.68,703.254"/>
            <path d="M824.021,682.358 L823.624,682.885"/>
            <path d="M870.764,703.031 L824.021,682.358"/>
            <path d="M856.874,721.462 L870.764,703.031"/>
            <path d="M810.13,700.788 L856.874,721.462"/>
            <path d="M823.624,682.906 L869.668,703.27"/>
            <path d="M810.13,700.81 L856.874,721.483"/>
            <path d="M856.874,721.483 L870.764,703.053"/>
            <path d="M653.044,547.177 L653.702,547.471"/>
            <path d="M642.266,561.279 L643.036,561.623"/>
            <path d="M642.323,560.795 L642.266,561.279"/>
            <path d="M642.78,560.659 L643.515,560.987"/>
            <path d="M652.587,547.313 L653.044,547.177"/>
            <path d="M642.78,560.659 L653.044,547.177"/>
            <path d="M642.323,560.795 L642.78,560.659"/>
            <path d="M642.323,560.795 L652.587,547.313"/>
            <path d="M600.488,545.549 L600.488,545.548"/>
            <path d="M614.084,527.711 L614.084,527.69"/>
            <path d="M600.488,545.548 L600.888,545.023"/>
            <path d="M600.888,545.023 L641.779,563.291"/>
            <path d="M614.084,527.69 L654.876,545.913"/>
            <path d="M614.484,527.165 L614.084,527.69"/>
            <path d="M655.273,545.387 L614.484,527.165"/>
            <path d="M600.488,545.548 L641.382,563.817"/>
            <path d="M614.084,527.711 L654.864,545.929"/>
            <path d="M639.048,565.561 L639.811,565.902"/>
            <path d="M628.271,579.663 L629.145,580.054"/>
            <path d="M628.328,579.179 L628.271,579.663"/>
            <path d="M628.785,579.043 L629.625,579.418"/>
            <path d="M638.591,565.697 L639.048,565.561"/>
            <path d="M628.785,579.043 L639.048,565.561"/>
            <path d="M628.328,579.179 L628.785,579.043"/>
            <path d="M628.328,579.179 L638.591,565.697"/>
            <path d="M600.088,546.095 L600.088,546.074"/>
            <path d="M586.493,563.932 L586.893,563.407"/>
            <path d="M586.893,563.407 L627.888,581.721"/>
            <path d="M600.088,546.074 L640.985,564.344"/>
            <path d="M600.488,545.548 L600.088,546.074"/>
            <path d="M641.382,563.817 L600.488,545.548"/>
            <path d="M586.493,563.932 L627.492,582.248"/>
            <path d="M600.088,546.095 L640.973,564.36"/>
            <path d="M625.053,583.945 L625.921,584.333"/>
            <path d="M624.596,584.081 L625.053,583.945"/>
            <path d="M619.738,590.926 L625.053,583.945"/>
            <path d="M619.472,590.811 L624.596,584.081"/>
            <path d="M586.093,564.479 L586.093,564.458"/>
            <path d="M572.498,582.316 L572.897,581.791"/>
            <path d="M572.897,581.791 L604.933,596.103"/>
            <path d="M620.653,599.929 L621.651,598.618"/>
            <path d="M586.093,564.458 L627.095,582.775"/>
            <path d="M627.492,582.248 L586.493,563.932"/>
            <path d="M572.498,582.316 L604.705,596.705"/>
            <path d="M586.093,564.479 L627.083,582.791"/>
            <path d="M558.502,600.7 L558.502,600.7"/>
            <path d="M572.098,582.863 L572.098,582.841"/>
            <path d="M558.502,600.7 L558.902,600.175"/>
            <path d="M558.902,600.175 L596.955,617.175"/>
            <path d="M572.098,582.841 L604.477,597.307"/>
            <path d="M572.498,582.316 L572.098,582.841"/>
            <path d="M604.705,596.705 L572.498,582.316"/>
            <path d="M558.502,600.7 L596.727,617.777"/>
            <path d="M572.098,582.863 L604.47,597.325"/>
            <path d="M594.839,625.444 L587.827,634.654"/>
            <path d="M595.839,625.886 L588.342,635.734"/>
            <path d="M595.491,625.732 L588.285,635.198"/>
            <path d="M586.285,634.815 L588.342,635.734"/>
            <path d="M586.342,634.33 L586.285,634.815"/>
            <path d="M586.799,634.194 L587.827,634.654"/>
            <path d="M588.285,635.198 L587.827,634.654"/>
            <path d="M588.285,635.198 L588.342,635.734"/>
            <path d="M586.799,634.194 L594.185,624.492"/>
            <path d="M586.342,634.33 L586.799,634.194"/>
            <path d="M586.342,634.33 L594.535,623.568"/>
            <path d="M558.102,601.247 L558.102,601.225"/>
            <path d="M544.507,619.084 L544.907,618.559"/>
            <path d="M544.907,618.559 L590.847,639.082"/>
            <path d="M590.847,639.082 L595.931,632.404"/>
            <path d="M558.102,601.225 L596.499,618.379"/>
            <path d="M558.502,600.7 L558.102,601.225"/>
            <path d="M596.727,617.777 L558.502,600.7"/>
            <path d="M544.507,619.084 L590.855,639.789"/>
            <path d="M558.102,601.247 L596.493,618.397"/>
            <path d="M584.095,639.556 L573.832,653.037"/>
            <path d="M584.609,640.636 L574.346,654.118"/>
            <path d="M584.552,640.1 L574.289,653.582"/>
            <path d="M584.609,640.636 L584.552,640.1"/>
            <path d="M584.095,639.556 L584.552,640.1"/>
            <path d="M583.067,639.097 L584.095,639.556"/>
            <path d="M572.289,653.199 L574.346,654.118"/>
            <path d="M572.346,652.714 L572.289,653.199"/>
            <path d="M572.803,652.578 L573.832,653.037"/>
            <path d="M574.289,653.582 L573.832,653.037"/>
            <path d="M574.289,653.582 L574.346,654.118"/>
            <path d="M582.61,639.232 L583.067,639.097"/>
            <path d="M572.803,652.578 L583.067,639.097"/>
            <path d="M572.346,652.714 L572.803,652.578"/>
            <path d="M572.346,652.714 L582.61,639.232"/>
            <path d="M544.107,619.63 L544.107,619.609"/>
            <path d="M530.511,637.468 L530.911,636.942"/>
            <path d="M530.911,636.942 L576.851,657.466"/>
            <path d="M576.851,657.466 L590.047,640.132"/>
            <path d="M544.107,619.609 L590.047,640.132"/>
            <path d="M544.507,619.084 L544.107,619.609"/>
            <path d="M590.855,639.789 L544.507,619.084"/>
            <path d="M530.511,637.468 L576.859,658.173"/>
            <path d="M544.107,619.63 L590.035,640.148"/>
            <path d="M570.1,657.94 L559.837,671.421"/>
            <path d="M570.614,659.02 L560.351,672.501"/>
            <path d="M570.557,658.484 L560.294,671.966"/>
            <path d="M570.614,659.02 L570.557,658.484"/>
            <path d="M570.1,657.94 L570.557,658.484"/>
            <path d="M569.071,657.48 L570.1,657.94"/>
            <path d="M558.294,671.583 L560.351,672.501"/>
            <path d="M558.351,671.098 L558.294,671.583"/>
            <path d="M558.808,670.962 L559.837,671.421"/>
            <path d="M560.294,671.966 L559.837,671.421"/>
            <path d="M560.294,671.966 L560.351,672.501"/>
            <path d="M568.614,657.616 L569.071,657.48"/>
            <path d="M558.808,670.962 L569.071,657.48"/>
            <path d="M558.351,671.098 L558.808,670.962"/>
            <path d="M558.351,671.098 L568.614,657.616"/>
            <path d="M530.111,638.014 L530.111,637.993"/>
            <path d="M516.516,655.852 L516.916,655.326"/>
            <path d="M516.916,655.326 L562.856,675.849"/>
            <path d="M562.856,675.849 L576.051,658.516"/>
            <path d="M530.111,637.993 L576.051,658.516"/>
            <path d="M530.511,637.468 L530.111,637.993"/>
            <path d="M576.859,658.173 L530.511,637.468"/>
            <path d="M516.516,655.852 L562.864,676.557"/>
            <path d="M530.111,638.014 L576.039,658.532"/>
            <path d="M556.104,676.324 L545.841,689.805"/>
            <path d="M556.619,677.404 L546.355,690.885"/>
            <path d="M556.562,676.868 L546.298,690.35"/>
            <path d="M556.619,677.404 L556.562,676.868"/>
            <path d="M556.104,676.324 L556.562,676.868"/>
            <path d="M555.076,675.864 L556.104,676.324"/>
            <path d="M544.298,689.966 L546.355,690.885"/>
            <path d="M544.356,689.482 L544.298,689.966"/>
            <path d="M544.813,689.346 L545.841,689.805"/>
            <path d="M546.298,690.35 L545.841,689.805"/>
            <path d="M546.298,690.35 L546.355,690.885"/>
            <path d="M554.619,676 L555.076,675.864"/>
            <path d="M544.813,689.346 L555.076,675.864"/>
            <path d="M544.356,689.482 L544.813,689.346"/>
            <path d="M544.356,689.482 L554.619,676"/>
            <path d="M516.116,656.398 L516.116,656.377"/>
            <path d="M502.521,674.235 L502.92,673.71"/>
            <path d="M502.92,673.71 L548.86,694.233"/>
            <path d="M548.86,694.233 L562.056,676.9"/>
            <path d="M516.116,656.377 L562.056,676.9"/>
            <path d="M516.516,655.852 L516.116,656.377"/>
            <path d="M562.864,676.557 L516.516,655.852"/>
            <path d="M502.521,674.235 L548.868,694.941"/>
            <path d="M516.116,656.398 L562.044,676.916"/>
            <path d="M542.109,694.708 L531.846,708.189"/>
            <path d="M542.623,695.788 L532.36,709.269"/>
            <path d="M542.566,695.252 L532.303,708.733"/>
            <path d="M542.623,695.788 L542.566,695.252"/>
            <path d="M542.109,694.708 L542.566,695.252"/>
            <path d="M541.081,694.248 L542.109,694.708"/>
            <path d="M530.303,708.35 L532.36,709.269"/>
            <path d="M530.36,707.866 L530.303,708.35"/>
            <path d="M530.817,707.73 L531.846,708.189"/>
            <path d="M532.303,708.733 L531.846,708.189"/>
            <path d="M532.303,708.733 L532.36,709.269"/>
            <path d="M540.624,694.384 L541.081,694.248"/>
            <path d="M530.817,707.73 L541.081,694.248"/>
            <path d="M530.36,707.866 L530.817,707.73"/>
            <path d="M530.36,707.866 L540.624,694.384"/>
            <path d="M502.121,674.782 L502.121,674.761"/>
            <path d="M488.525,692.619 L488.925,692.094"/>
            <path d="M488.925,692.094 L534.865,712.617"/>
            <path d="M534.865,712.617 L548.061,695.284"/>
            <path d="M502.121,674.761 L548.061,695.284"/>
            <path d="M502.521,674.235 L502.121,674.761"/>
            <path d="M548.868,694.941 L502.521,674.235"/>
            <path d="M488.525,692.619 L534.873,713.325"/>
            <path d="M502.121,674.782 L548.049,695.3"/>
            <path d="M528.114,713.091 L517.85,726.573"/>
            <path d="M528.628,714.172 L518.365,727.653"/>
            <path d="M528.571,713.636 L518.308,727.117"/>
            <path d="M528.628,714.172 L528.571,713.636"/>
            <path d="M528.114,713.091 L528.571,713.636"/>
            <path d="M527.085,712.632 L528.114,713.091"/>
            <path d="M516.308,726.734 L518.365,727.653"/>
            <path d="M516.365,726.249 L516.308,726.734"/>
            <path d="M516.822,726.113 L517.85,726.573"/>
            <path d="M518.308,727.117 L517.85,726.573"/>
            <path d="M518.308,727.117 L518.365,727.653"/>
            <path d="M526.628,712.768 L527.085,712.632"/>
            <path d="M516.822,726.113 L527.085,712.632"/>
            <path d="M516.365,726.249 L516.822,726.113"/>
            <path d="M516.365,726.249 L526.628,712.768"/>
            <path d="M488.125,693.166 L488.125,693.145"/>
            <path d="M474.53,711.003 L474.93,710.478"/>
            <path d="M474.93,710.478 L520.87,731.001"/>
            <path d="M520.87,731.001 L534.065,713.668"/>
            <path d="M488.125,693.145 L534.065,713.668"/>
            <path d="M488.525,692.619 L488.125,693.145"/>
            <path d="M534.873,713.325 L488.525,692.619"/>
            <path d="M474.53,711.003 L520.878,731.709"/>
            <path d="M488.125,693.166 L534.053,713.684"/>
            <path d="M514.118,731.475 L503.855,744.957"/>
            <path d="M514.633,732.555 L504.369,746.037"/>
            <path d="M514.575,732.02 L504.312,745.501"/>
            <path d="M514.633,732.555 L514.575,732.02"/>
            <path d="M514.118,731.475 L514.575,732.02"/>
            <path d="M513.09,731.016 L514.118,731.475"/>
            <path d="M502.312,745.118 L504.369,746.037"/>
            <path d="M502.369,744.633 L502.312,745.118"/>
            <path d="M502.827,744.497 L503.855,744.957"/>
            <path d="M504.312,745.501 L503.855,744.957"/>
            <path d="M504.312,745.501 L504.369,746.037"/>
            <path d="M512.633,731.152 L513.09,731.016"/>
            <path d="M502.827,744.497 L513.09,731.016"/>
            <path d="M502.369,744.633 L502.827,744.497"/>
            <path d="M502.369,744.633 L512.633,731.152"/>
            <path d="M474.13,711.55 L474.13,711.528"/>
            <path d="M460.911,728.892 L460.934,728.862"/>
            <path d="M460.934,728.862 L506.874,749.385"/>
            <path d="M506.874,749.385 L520.07,732.052"/>
            <path d="M474.13,711.528 L520.07,732.052"/>
            <path d="M474.53,711.003 L474.13,711.528"/>
            <path d="M520.878,731.709 L474.53,711.003"/>
            <path d="M474.13,711.55 L520.058,732.067"/>
            <path d="M724.513,762.466 L724.513,748.636"/>
            <path d="M719.75,768.785 L719.744,768.794"/>
            <path d="M719.75,755.296 L719.75,768.785"/>
            <path d="M724.284,762.365 L724.284,748.94"/>
            <path d="M724.777,762.115 L724.513,762.466"/>
            <path d="M724.284,762.365 L724.513,762.466"/>
            <path d="M719.75,767.215 L723.625,762.074"/>
            <path d="M723.625,749.815 L723.625,762.074"/>
            <path d="M577.16,765.022 L577.16,751.101"/>
            <path d="M577.16,739.955 L577.16,731.081"/>
            <path d="M632.117,789.327 L577.16,765.022"/>
            <path d="M632.117,789.327 L632.117,739.668"/>
            <path d="M732.165,745.744 L731.931,745.641"/>
            <path d="M684.885,812.665 L684.885,779.195"/>
            <path d="M686.489,813.374 L684.885,812.665"/>
            <path d="M724.578,748.55 L724.771,748.635"/>
            <path d="M725.035,762.229 L724.777,762.115"/>
            <path d="M724.284,761.897 L723.625,761.606"/>
            <path d="M695.322,789.255 L695.322,797.419"/>
            <path d="M725.815,754.17 L732.165,745.744"/>
            <path d="M725.815,746.006 L725.815,754.17"/>
            <path d="M732.165,737.581 L725.815,746.006"/>
            <path d="M732.165,745.744 L732.165,737.581"/>
            <path d="M772.59,699.131 L772.59,670.793"/>
            <path d="M686.489,813.374 L686.489,780.397"/>
            <path d="M719.744,769.25 L701.672,793.228"/>
            <path d="M695.322,801.654 L686.489,813.374"/>
            <path d="M719.744,769.25 L719.744,755.305"/>
            <path d="M719.744,755.305 L720.008,754.954"/>
            <path d="M720.008,754.613 L720.008,754.954"/>
            <path d="M724.771,748.294 L720.008,754.613"/>
            <path d="M724.771,748.635 L724.771,748.294"/>
            <path d="M724.771,748.635 L725.035,748.284"/>
            <path d="M725.035,748.284 L725.035,762.229"/>
            <path d="M772.59,699.131 L725.581,761.505"/>
            <path d="M725.581,761.505 L725.035,762.229"/>
            <path d="M748.191,732.845 L747.741,732.645"/>
            <path d="M747.728,733.459 L747.272,733.257"/>
            <path d="M745.421,736.52 L744.937,736.306"/>
            <path d="M745.016,737.057 L744.528,736.841"/>
            <path d="M744.553,737.672 L744.059,737.453"/>
            <path d="M742.246,740.733 L741.724,740.502"/>
            <path d="M741.841,741.27 L741.315,741.037"/>
            <path d="M741.378,741.884 L740.846,741.649"/>
            <path d="M739.071,744.946 L738.511,744.698"/>
            <path d="M738.666,745.483 L738.102,745.233"/>
            <path d="M738.203,746.097 L737.633,745.845"/>
            <path d="M735.896,749.158 L735.298,748.894"/>
            <path d="M735.491,749.695 L734.889,749.429"/>
            <path d="M735.028,750.31 L734.42,750.041"/>
            <path d="M732.721,753.371 L732.085,753.09"/>
            <path d="M609,620.327 L611.148,614.715"/>
            <path d="M609,620.327 L607.032,620.408"/>
            <path d="M609,620.327 L609.18,620.407"/>
            <path d="M609.31,621.014 L612.086,613.762"/>
            <path d="M609.18,620.407 L611.362,614.706"/>
            <path d="M609.18,620.407 L612.084,613.762"/>
            <path d="M606.998,620.497 L609.18,614.796"/>
            <path d="M606.998,620.497 L608.41,616.195"/>
            <path d="M609.18,614.796 L611.362,614.706"/>
            <path d="M612.074,613.762 L611.362,614.706"/>
            <path d="M609.18,614.796 L609.18,614.161"/>
            <path d="M609.18,614.796 L611.999,613.765"/>
            <path d="M606.998,620.497 L609.18,620.407"/>
            <path d="M609.18,621.034 L609.18,620.407"/>
            <path d="M606.563,621.074 L606.998,620.497"/>
            <path d="M608.592,621.123 L606.998,620.497"/>
            <path d="M611.131,627.764 L611.148,627.719"/>
            <path d="M611.621,627.981 L611.838,627.414"/>
            <path d="M611.311,627.844 L611.362,627.71"/>
            <path d="M611.564,627.956 L611.803,627.409"/>
            <path d="M611.039,627.724 L611.362,627.71"/>
            <path d="M611.608,627.384 L611.362,627.71"/>
            <path d="M610.293,627.393 L610.66,627.259"/>
            <path d="M732.316,753.908 L731.676,753.625"/>
            <path d="M731.853,754.522 L731.207,754.237"/>
            <path d="M729.546,757.584 L728.876,757.287"/>
            <path d="M729.141,758.121 L728.476,757.826"/>
            <path d="M728.678,758.735 L728.019,758.443"/>
            <path d="M726.371,761.796 L725.739,761.517"/>
            <path d="M727.667,764.947 L727.667,767.167"/>
            <path d="M727.667,767.167 L727.204,767.781"/>
            <path d="M725.966,762.333 L725.339,762.056"/>
            <path d="M727.204,767.781 L727.204,764.742"/>
            <path d="M725.503,762.948 L724.882,762.673"/>
            <path d="M727.204,767.781 L722.602,765.746"/>
            <path d="M724.492,767.298 L724.492,771.38"/>
            <path d="M724.492,771.38 L724.029,771.994"/>
            <path d="M724.029,767.912 L724.492,767.298"/>
            <path d="M724.492,767.298 L722.202,766.285"/>
            <path d="M724.029,771.994 L724.029,767.912"/>
            <path d="M724.029,767.912 L721.745,766.902"/>
            <path d="M724.029,771.994 L719.465,769.976"/>
            <path d="M627.353,597.746 L625.587,600.088"/>
            <path d="M627.519,597.845 L625.587,600.407"/>
            <path d="M627.867,598.052 L625.567,601.104"/>
            <path d="M627.761,597.989 L625.567,601.066"/>
            <path d="M625.587,600.407 L625.587,596.695"/>
            <path d="M625.567,600.16 L625.587,600.407"/>
            <path d="M625.567,600.46 L625.587,600.407"/>
            <path d="M563.537,437.053 L344.314,713.21"/>
            <path d="M577.827,443.372 L563.537,437.053"/>
            <path d="M359.822,720.066 L372.021,704.582"/>
            <path d="M381.172,692.968 L577.827,443.372"/>
            <path d="M359.822,721.087 L371.156,706.701"/>
            <path d="M568.356,456.413 L577.827,444.392"/>
            <path d="M577.827,444.392 L577.827,443.372"/>
            <path d="M344.314,713.21 L359.822,720.066"/>
            <path d="M344.314,714.23 L359.822,721.087"/>
            <path d="M359.822,721.087 L359.822,720.066"/>
            <path d="M344.314,714.23 L344.314,713.21"/>
            <path d="M449.531,554.09 L410.197,602.919"/>
            <path d="M472.748,550.964 L471.302,550.223"/>
            <path d="M417.525,620.528 L472.748,550.964"/>
            <path d="M472.748,551.421 L472.748,550.964"/>
            <path d="M415.401,619.537 L417.525,620.528"/>
            <path d="M417.525,620.985 L417.525,620.528"/>
            <path d="M412.608,617.878 L415.401,619.537"/>
            <path d="M410.368,615.782 L412.608,617.878"/>
            <path d="M408.797,613.356 L410.368,615.782"/>
            <path d="M407.972,610.723 L408.797,613.356"/>
            <path d="M407.854,609.247 L407.972,610.723"/>
            <path d="M407.936,608.015 L407.854,609.247"/>
            <path d="M408.69,605.369 L407.936,608.015"/>
            <path d="M410.197,602.919 L408.69,605.369"/>
            <path d="M451.72,551.955 L449.531,554.09"/>
            <path d="M454.476,550.25 L451.72,551.955"/>
            <path d="M457.661,549.061 L454.476,550.25"/>
            <path d="M461.113,548.448 L457.661,549.061"/>
            <path d="M464.656,548.442 L461.113,548.448"/>
            <path d="M468.111,549.044 L464.656,548.442"/>
            <path d="M471.302,550.223 L468.111,549.044"/>
            <path d="M340.92,691.419 L335.32,698.849"/>
            <path d="M364.392,687.868 L362.284,686.955"/>
            <path d="M342.998,689.259 L340.92,691.419"/>
            <path d="M345.648,687.505 L342.998,689.259"/>
            <path d="M348.739,686.244 L345.648,687.505"/>
            <path d="M352.118,685.538 L348.739,686.244"/>
            <path d="M355.617,685.422 L352.118,685.538"/>
            <path d="M359.063,685.903 L355.617,685.422"/>
            <path d="M362.284,686.955 L359.063,685.903"/>
            <path d="M350.873,704.948 L364.392,687.868"/>
            <path d="M364.392,687.918 L364.392,687.868"/>
            <path d="M335.32,698.849 L350.873,704.948"/>
            <path d="M335.32,699.87 L350.255,705.726"/>
            <path d="M350.873,704.948 L350.873,704.948"/>
            <path d="M335.32,699.87 L335.32,698.849"/>
            <path d="M552.798,414.034 L516.293,462.47"/>
            <path d="M574.272,423.531 L552.798,414.034"/>
            <path d="M522.459,479.104 L528.257,481.495"/>
            <path d="M519.514,477.533 L522.459,479.104"/>
            <path d="M517.11,475.492 L519.514,477.533"/>
            <path d="M515.373,473.086 L517.11,475.492"/>
            <path d="M514.393,470.442 L515.373,473.086"/>
            <path d="M514.186,468.497 L514.393,470.442"/>
            <path d="M514.221,467.696 L514.186,468.497"/>
            <path d="M514.865,464.992 L514.221,467.696"/>
            <path d="M516.293,462.47 L514.865,464.992"/>
            <path d="M528.257,481.495 L574.272,423.531"/>
            <path d="M564.137,437.318 L574.272,424.551"/>
            <path d="M574.272,424.551 L574.272,423.531"/>
            <path d="M522.459,479.104 L528.257,481.495"/>
            <path d="M529.4,403.685 L552.798,414.034"/>
            <path d="M305.541,685.683 L529.4,403.685"/>
            <path d="M415.401,619.537 L417.525,620.528"/>
            <path d="M473.035,551.059 L471.302,550.223"/>
            <path d="M528.257,481.495 L473.035,551.059"/>
            <path d="M473.035,551.059 L473.035,551.059"/>
            <path d="M519.514,477.533 L522.459,479.104"/>
            <path d="M517.11,475.492 L519.514,477.533"/>
            <path d="M515.373,473.086 L517.11,475.492"/>
            <path d="M514.393,470.442 L515.373,473.086"/>
            <path d="M514.186,468.497 L514.393,470.442"/>
            <path d="M514.221,467.696 L514.186,468.497"/>
            <path d="M514.865,464.992 L514.221,467.696"/>
            <path d="M516.293,462.47 L514.865,464.992"/>
            <path d="M552.798,414.034 L516.293,462.47"/>
            <path d="M335.32,698.849 L305.541,685.683"/>
            <path d="M335.32,699.87 L305.541,686.703"/>
            <path d="M305.541,686.703 L305.541,685.683"/>
            <path d="M340.92,691.419 L335.32,698.849"/>
            <path d="M335.32,699.87 L335.32,698.849"/>
            <path d="M342.998,689.259 L340.92,691.419"/>
            <path d="M345.648,687.505 L342.998,689.259"/>
            <path d="M348.739,686.244 L345.648,687.505"/>
            <path d="M352.118,685.538 L348.739,686.244"/>
            <path d="M355.617,685.422 L352.118,685.538"/>
            <path d="M359.063,685.903 L355.617,685.422"/>
            <path d="M362.284,686.955 L359.063,685.903"/>
            <path d="M364.69,687.997 L362.284,686.955"/>
            <path d="M417.525,620.528 L364.69,687.997"/>
            <path d="M417.525,620.985 L417.525,620.528"/>
            <path d="M412.608,617.878 L415.401,619.537"/>
            <path d="M410.368,615.782 L412.608,617.878"/>
            <path d="M408.797,613.356 L410.368,615.782"/>
            <path d="M407.972,610.723 L408.797,613.356"/>
            <path d="M407.854,609.247 L407.972,610.723"/>
            <path d="M407.936,608.015 L407.854,609.247"/>
            <path d="M408.69,605.369 L407.936,608.015"/>
            <path d="M410.197,602.919 L408.69,605.369"/>
            <path d="M449.531,554.09 L410.197,602.919"/>
            <path d="M451.72,551.955 L449.531,554.09"/>
            <path d="M454.476,550.25 L451.72,551.955"/>
            <path d="M457.661,549.061 L454.476,550.25"/>
            <path d="M461.113,548.448 L457.661,549.061"/>
            <path d="M464.656,548.442 L461.113,548.448"/>
            <path d="M468.111,549.044 L464.656,548.442"/>
            <path d="M471.302,550.223 L468.111,549.044"/>
            <path d="M633.771,602.022 L623.255,615.975"/>
            <path d="M625.813,629.248 L623.255,632.642"/>
            <path d="M633.771,616.233 L633.771,602.022"/>
            <path d="M623.255,632.642 L623.255,628.912"/>
            <path d="M623.255,618.913 L623.255,615.975"/>
            <path d="M620.653,611.404 L623.255,612.555"/>
            <path d="M619.727,612.633 L620.653,611.404"/>
            <path d="M622.329,613.783 L619.727,612.633"/>
            <path d="M619.727,631.566 L619.727,628.449"/>
            <path d="M619.727,619.445 L619.727,612.633"/>
            <path d="M623.255,612.555 L622.329,613.783"/>
            <path d="M623.255,632.642 L622.981,633.005"/>
            <path d="M622.329,632.717 L622.329,628.791"/>
            <path d="M622.329,619.053 L622.329,613.783"/>
            <path d="M623.255,632.642 L623.255,628.912"/>
            <path d="M623.255,618.913 L623.255,612.555"/>
            <path d="M609.706,627.134 L640.201,640.621"/>
            <path d="M639.275,641.85 L604.439,626.442"/>
            <path d="M609.863,667.618 L595.931,661.456"/>
            <path d="M595.931,661.456 L595.931,625.926"/>
            <path d="M574.64,714.353 L574.64,712.149"/>
            <path d="M578.803,750.952 L578.308,751.608"/>
            <path d="M578.308,751.608 L578.308,742.008"/>
            <path d="M559.083,743.106 L559.083,738.908"/>
            <path d="M578.308,751.608 L559.083,743.106"/>
            <path d="M578.308,742.008 L577.392,741.829"/>
            <path d="M578.803,741.351 L578.308,742.008"/>
            <path d="M611.688,628.01 L611.913,627.424"/>
            <path d="M609.393,621.002 L612.166,613.759"/>
            <path d="M612.166,613.759 L609.288,613.877"/>
            <path d="M620.653,611.404 L620.653,596.599"/>
            <path d="M621.651,611.184 L621.651,596.553"/>
            <path d="M623.255,611.893 L621.651,611.184"/>
            <path d="M625.567,596.683 L625.567,601.989"/>
            <path d="M625.567,601.989 L628.328,598.326"/>
            <path d="M623.255,611.893 L623.255,596.479"/>
            <path d="M631.861,600.475 L623.255,611.893"/>
            <path d="M769.581,601.536 L773.188,603.132"/>
            <path d="M772.262,604.36 L768.655,602.765"/>
            <path d="M773.188,603.132 L772.262,604.36"/>
            <path d="M772.262,604.36 L772.262,604.36"/>
            <path d="M773.188,603.132 L773.188,603.132"/>
            <path d="M631.861,600.475 L623.255,611.893"/>
            <path d="M633.771,602.022 L623.255,615.975"/>
            <path d="M633.771,602.022 L633.771,601.567"/>
            <path d="M623.255,611.893 L623.255,611.893"/>
            <path d="M623.255,611.893 L621.651,611.184"/>
            <path d="M621.651,611.845 L621.651,611.184"/>
            <path d="M623.255,615.975 L623.255,611.893"/>
            <path d="M721.343,543 L779.84,586.818"/>
            <path d="M654.321,631.927 L721.343,543"/>
            <path d="M674.859,647.312 L654.321,631.927"/>
            <path d="M673.069,647.077 L654.321,633.033"/>
            <path d="M654.321,633.033 L654.321,631.927"/>
            <path d="M779.84,586.818 L745.682,632.141"/>
            <path d="M779.84,587.923 L746.214,632.539"/>
            <path d="M779.84,587.923 L779.84,586.818"/>
            <path d="M721.337,543.007 L662.852,535.33"/>
            <path d="M662.852,535.33 L620.509,591.513"/>
            <path d="M625.084,596.395 L641.4,606.11"/>
            <path d="M632.839,617.469 L641.4,606.11"/>
            <path d="M632.839,617.469 L606.41,621.451"/>
            <path d="M599.888,625.845 L654.321,632.99"/>
            <path d="M596.291,624.267 L654.35,631.889"/>
            <path d="M632.117,789.327 L632.117,739.668"/>
            <path d="M684.885,812.665 L632.117,789.327"/>
            <path d="M684.885,812.665 L684.885,779.195"/>
            <path d="M621.338,652.393 L603.601,675.927"/>
            <path d="M577.717,710.271 L557.212,737.478"/>
            <path d="M628.318,653.716 L621.338,652.393"/>
            <path d="M577.029,741.235 L577.887,740.097"/>
            <path d="M577.029,742.31 L577.887,741.172"/>
            <path d="M557.212,737.478 L577.029,741.235"/>
            <path d="M557.212,738.553 L577.029,742.31"/>
            <path d="M577.029,742.31 L577.029,741.235"/>
            <path d="M557.212,738.553 L557.212,737.478"/>
            <path d="M698.309,616.197 L718.847,618.893"/>
            <path d="M571.411,729.221 L637.444,641.606"/>
            <path d="M638.69,639.953 L644.873,631.75"/>
            <path d="M718.847,618.893 L629.908,736.9"/>
            <path d="M629.908,738.005 L629.908,738.005"/>
            <path d="M718.847,618.901 L718.847,618.893"/>
            <path d="M629.908,736.9 L571.411,729.221"/>
            <path d="M629.908,738.005 L571.411,730.327"/>
            <path d="M571.411,730.327 L571.411,729.221"/>
            <path d="M629.908,738.005 L629.908,736.9"/>
            <path d="M780.967,658.572 L722.142,614.507"/>
            <path d="M722.142,614.507 L718.838,618.891"/>
            <path d="M688.723,780.965 L780.967,658.572"/>
            <path d="M688.723,782.07 L780.967,659.678"/>
            <path d="M780.967,659.678 L780.967,658.572"/>
            <path d="M629.908,736.908 L688.723,780.965"/>
            <path d="M629.898,738.006 L688.723,782.07"/>
            <path d="M688.723,782.07 L688.723,780.965"/>
            <path d="M629.898,738.006 L629.898,738.004"/>
            <path d="M619.494,590.81 L620.631,591.351"/>
            <path d="M606.715,591.395 L619.494,590.81"/>
            <path d="M615.736,595.385 L606.715,591.395"/>
            <path d="M615.175,596.851 L606.154,592.861"/>
            <path d="M606.154,592.861 L606.715,591.395"/>
            <path d="M626.202,594.903 L615.736,595.385"/>
            <path d="M625.084,596.395 L615.744,596.825"/>
            <path d="M615.175,596.851 L615.736,595.385"/>
            <path d="M593.97,625.059 L602.991,629.049"/>
            <path d="M606.709,591.413 L593.97,625.059"/>
            <path d="M615.73,595.403 L615.73,595.402"/>
            <path d="M615.73,595.402 L606.709,591.413"/>
            <path d="M616.291,595.379 L616.285,595.377"/>
            <path d="M602.991,629.049 L604,626.385"/>
            <path d="M605.314,622.913 L615.73,595.403"/>
            <path d="M603.553,629.026 L604.139,627.477"/>
            <path d="M606.421,621.45 L616.291,595.379"/>
            <path d="M616.291,595.379 L615.73,595.403"/>
            <path d="M603.553,629.026 L602.991,629.049"/>
            <path d="M601.585,674.523 L587.704,675.154"/>
            <path d="M603.89,675.543 L601.585,674.523"/>
            <path d="M587.704,675.154 L606.046,683.267"/>
            <path d="M587.142,676.621 L605.077,684.552"/>
            <path d="M587.142,676.621 L587.704,675.154"/>
            <path d="M573.822,711.787 L587.697,675.172"/>
            <path d="M575.886,712.7 L573.822,711.787"/>
            <path d="M587.697,675.172 L606.034,683.282"/>
            <path d="M749.289,634.842 L773.188,603.132"/>
            <path d="M773.188,603.132 L774.792,603.841"/>
            <path d="M774.792,623.928 L774.792,603.841"/>
            <path d="M774.792,603.841 L750.655,635.866"/>
            <path d="M774.792,623.928 L760.332,643.115"/>
            <path d="M639.679,566.077 L639.013,566.108"/>
            <path d="M639.013,566.108 L639.495,566.321"/>
            <path d="M638.452,567.574 L638.526,567.607"/>
            <path d="M638.452,567.574 L639.013,566.108"/>
            <path d="M631.835,600.542 L632.669,600.911"/>
            <path d="M639.007,566.125 L638.365,567.821"/>
            <path d="M639.484,566.336 L639.007,566.125"/>
            <path d="M565.951,455.366 L938.568,617.579"/>
            <path d="M544.893,486.19 L565.951,455.366"/>
            <path d="M569.859,497.229 L544.893,486.19"/>
            <path d="M574.135,498.658 L569.859,497.229"/>
            <path d="M578.719,499.322 L574.135,498.658"/>
            <path d="M583.381,499.188 L578.719,499.322"/>
            <path d="M587.887,498.263 L583.381,499.188"/>
            <path d="M592.012,496.594 L587.887,498.263"/>
            <path d="M595.548,494.262 L592.012,496.594"/>
            <path d="M598.318,491.387 L595.548,494.262"/>
            <path d="M606.535,480.485 L598.318,491.387"/>
            <path d="M929.546,629.667 L606.535,480.485"/>
            <path d="M938.568,617.579 L929.546,629.667"/>
            <path d="M938.568,618.6 L929.546,630.688"/>
            <path d="M929.546,630.688 L929.546,629.667"/>
            <path d="M938.568,618.6 L938.568,617.579"/>
            <path d="M489.934,555.423 L437.703,621.218"/>
            <path d="M492.16,556.526 L489.934,555.423"/>
            <path d="M437.703,621.218 L453.476,615.782"/>
            <path d="M493.744,557.516 L492.16,556.526"/>
            <path d="M495.006,558.748 L493.744,557.516"/>
            <path d="M495.885,560.162 L495.006,558.748"/>
            <path d="M496.338,561.689 L495.885,560.162"/>
            <path d="M496.397,562.49 L496.338,561.689"/>
            <path d="M496.343,563.255 L496.397,562.49"/>
            <path d="M495.9,564.784 L496.343,563.255"/>
            <path d="M495.031,566.201 L495.9,564.784"/>
            <path d="M457.577,613.017 L495.031,566.201"/>
            <path d="M456.461,614.143 L457.577,613.017"/>
            <path d="M455.075,615.077 L456.461,614.143"/>
            <path d="M453.476,615.782 L455.075,615.077"/>
            <path d="M544.072,731.91 L557.212,737.721"/>
            <path d="M579.951,695.613 L573.559,692.785"/>
            <path d="M595.908,661.529 L609.831,667.661"/>
            <path d="M507.16,749.728 L595.931,633.122"/>
            <path d="M620.653,600.647 L621.651,599.336"/>
            <path d="M380.876,692.834 L507.16,749.728"/>
            <path d="M374.977,700.661 L380.876,692.834"/>
            <path d="M554.243,718.415 L544.072,731.91"/>
            <path d="M567.245,724.165 L554.243,718.415"/>
            <path d="M573.559,692.785 L583.73,679.29"/>
            <path d="M583.73,679.29 L585.799,680.182"/>
            <path d="M583.73,679.29 L583.73,679.29"/>
            <path d="M576.993,764.99 L563.716,759.118"/>
            <path d="M562.199,758.447 L533.603,745.8"/>
            <path d="M577.16,764.769 L576.993,764.99"/>
            <path d="M595.955,661.467 L595.908,661.529"/>
            <path d="M518.225,766.204 L374.977,700.661"/>
            <path d="M533.603,745.8 L518.225,766.204"/>
            <path d="M533.603,745.8 L533.603,745.8"/>
            <path d="M770.379,703.405 L725.491,762.964"/>
            <path d="M781.938,708.517 L770.379,703.405"/>
            <path d="M736.82,767.975 L781.938,708.517"/>
            <path d="M736.82,768.995 L781.938,709.538"/>
            <path d="M781.938,709.538 L781.938,708.517"/>
            <path d="M725.491,762.964 L736.82,767.975"/>
            <path d="M725.491,763.985 L736.82,768.995"/>
            <path d="M736.82,768.995 L736.82,767.975"/>
            <path d="M725.491,763.985 L725.491,762.964"/>
            <path d="M371.156,705.73 L374.977,700.661"/>
            <path d="M374.977,700.661 L518.225,766.204"/>
            <path d="M516.211,768.877 L371.156,705.73"/>
            <path d="M516.211,769.898 L371.156,706.751"/>
            <path d="M371.156,706.751 L371.156,705.73"/>
            <path d="M518.225,766.204 L516.211,768.877"/>
            <path d="M516.211,769.898 L516.211,769.898"/>
            <path d="M516.211,769.898 L516.211,768.877"/>
            <path d="M518.225,766.204 L518.225,766.204"/>
            <path d="M752.42,766.75 L803.028,699.99"/>
            <path d="M606.535,480.485 L929.546,629.667"/>
            <path d="M598.318,491.387 L606.535,480.485"/>
            <path d="M544.893,486.19 L569.859,497.229"/>
            <path d="M489.934,555.423 L544.893,486.19"/>
            <path d="M457.577,613.017 L495.031,566.201"/>
            <path d="M437.703,621.218 L453.476,615.782"/>
            <path d="M381.172,692.968 L437.703,621.218"/>
            <path d="M760.923,643.557 L775.718,624.485"/>
            <path d="M803.028,699.99 L772.59,686.563"/>
            <path d="M802.449,700.754 L772.59,687.584"/>
            <path d="M808.378,792.009 L808.377,792.009"/>
            <path d="M808.378,793.029 L808.092,792.903"/>
            <path d="M929.546,629.667 L808.378,792.009"/>
            <path d="M929.546,630.688 L808.378,793.029"/>
            <path d="M808.378,793.029 L808.378,792.009"/>
            <path d="M929.546,630.688 L929.546,629.667"/>
            <path d="M595.548,494.262 L598.318,491.387"/>
            <path d="M592.012,496.594 L595.548,494.262"/>
            <path d="M587.887,498.263 L592.012,496.594"/>
            <path d="M583.381,499.188 L587.887,498.263"/>
            <path d="M578.719,499.322 L583.381,499.188"/>
            <path d="M574.135,498.658 L578.719,499.322"/>
            <path d="M569.859,497.229 L574.135,498.658"/>
            <path d="M492.16,556.526 L489.934,555.423"/>
            <path d="M489.934,555.423 L489.934,555.423"/>
            <path d="M493.744,557.516 L492.16,556.526"/>
            <path d="M495.006,558.748 L493.744,557.516"/>
            <path d="M495.885,560.162 L495.006,558.748"/>
            <path d="M496.338,561.689 L495.885,560.162"/>
            <path d="M496.397,562.49 L496.338,561.689"/>
            <path d="M496.343,563.255 L496.397,562.49"/>
            <path d="M495.9,564.784 L496.343,563.255"/>
            <path d="M495.031,566.201 L495.9,564.784"/>
            <path d="M456.461,614.143 L457.577,613.017"/>
            <path d="M455.075,615.077 L456.461,614.143"/>
            <path d="M453.476,615.782 L455.075,615.077"/>
            <path d="M775.718,624.485 L774.792,624.078"/>
            <path d="M775.128,625.246 L774.731,625.072"/>
            <path d="M567.245,724.165 L554.243,718.415"/>
            <path d="M554.243,718.415 L544.072,731.91"/>
            <path d="M544.072,731.91 L557.212,737.721"/>
            <path d="M585.799,680.182 L583.73,679.29"/>
            <path d="M583.73,679.29 L573.559,692.785"/>
            <path d="M573.559,692.785 L579.951,695.613"/>
            <path d="M741.733,780.288 L719.026,770.245"/>
            <path d="M752.131,766.622 L741.733,780.288"/>
            <path d="M808.377,791.499 L752.131,766.622"/>
            <path d="M533.603,745.8 L516.211,768.877"/>
            <path d="M686.489,813.417 L563.716,759.118"/>
            <path d="M562.199,758.447 L533.603,745.8"/>
            <path d="M719.026,770.245 L686.489,813.417"/>
            <path d="M749.47,870.424 L808.377,791.499"/>
            <path d="M749.47,871.444 L808.377,792.52"/>
            <path d="M808.377,792.52 L808.377,791.499"/>
            <path d="M516.211,768.877 L749.47,870.424"/>
            <path d="M516.211,769.898 L749.47,871.444"/>
            <path d="M749.47,871.444 L749.47,870.424"/>
            <path d="M516.211,769.898 L516.211,768.877"/>
            <path d="M701.672,773.141 L701.672,773.141"/>
            <path d="M695.322,781.567 L695.322,781.567"/>
            <path d="M695.322,801.654 L695.322,801.654"/>
            <path d="M701.672,773.141 L695.322,781.567"/>
            <path d="M701.672,793.228 L695.322,801.654"/>
            <path d="M695.322,801.654 L695.322,781.567"/>
            <path d="M701.672,793.228 L701.672,773.141"/>
            <path d="M731.931,732.992 L725.581,741.418"/>
            <path d="M731.931,753.08 L725.581,761.505"/>
            <path d="M725.581,761.505 L725.581,741.418"/>
            <path d="M731.931,753.08 L731.931,732.992"/>
            <path d="M1328.01,974.344 L1296.19,1016.55"/>
            <path d="M1383.31,998.802 L1328.01,974.344"/>
            <path d="M1351.5,1041.01 L1383.31,998.802"/>
            <path d="M1351.5,1042.03 L1383.31,999.823"/>
            <path d="M1383.31,999.823 L1383.31,998.802"/>
            <path d="M1296.19,1016.55 L1351.5,1041.01"/>
            <path d="M1296.19,1017.57 L1351.5,1042.03"/>
            <path d="M1351.5,1042.03 L1351.5,1041.01"/>
            <path d="M1296.19,1017.57 L1296.19,1016.55"/>
            <path d="M724.284,762.314 L719.75,768.329"/>
            <path d="M724.284,762.357 L719.75,768.372"/>
            <path d="M767.754,603.96 L771.361,605.556"/>
            <path d="M578.323,708.767 L578.011,709.181"/>
            <path d="M578.011,709.181 L579.386,709.789"/>
            <path d="M578.011,709.581 L578.011,709.181"/>
            <path d="M579.386,709.789 L579.698,709.375"/>
            <path d="M579.386,710.188 L579.386,709.789"/>
            <path d="M562.199,758.699 L563.574,759.307"/>
            <path d="M562.199,758.699 L562.199,744.484"/>
            <path d="M563.574,759.307 L564.367,758.254"/>
            <path d="M564.367,758.254 L564.367,745.443"/>
            <path d="M563.574,759.307 L563.574,745.092"/>
            <path d="M577.155,765.049 L577.172,765.027"/>
            <path d="M772.566,699.163 L772.59,699.174"/>
            <path d="M774.768,623.96 L774.792,623.971"/>
            <path d="M595.908,661.529 L595.955,661.467"/>
            <path d="M609.831,667.661 L595.908,661.529"/>
            <path d="M580.313,766.416 L577.155,765.049"/>
            <path d="M577.155,765.062 L577.155,765.049"/>
            <path d="M686.489,813.417 L682.099,811.433"/>
            <path d="M632.122,789.372 L632.122,789.329"/>
            <path d="M724.336,762.388 L719.75,768.571"/>
            <path d="M688.472,810.743 L686.489,813.417"/>
            <path d="M729.024,757.088 L719.207,770.325"/>
            <path d="M772.59,699.174 L770.56,701.825"/>
            <path d="M772.59,700.194 L729.024,757.088"/>
            <path d="M729.024,757.088 L729.024,756.937"/>
            <path d="M772.59,700.194 L772.59,699.174"/>
            <path d="M774.792,623.971 L760.352,643.13"/>
            <path d="M774.792,624.991 L760.844,643.498"/>
            <path d="M774.792,624.991 L774.792,623.971"/>
        </g>
    </g>
</svg>