<?xml version="1.0" encoding="utf-8" ?>
<svg xmlns="http://www.w3.org/2000/svg" xmlns:ev="http://www.w3.org/2001/xml-events" xmlns:ifc="http://www.ifcopenshell.org/ns" xmlns:xlink="http://www.w3.org/1999/xlink" baseProfile="full" data-scale="1/4&quot;=1'-0&quot;" height="379.4603905726442mm" id="root" version="1.1" viewBox="0 0 542.4250761667887 379.4603905726442" width="542.4250761667887mm">
  <defs/>
  <image height="379.4603905726442" width="542.4250761667887" xlink:href="FLOOR PLAN - 1ST FLOOR-underlay.png"/>
</svg>
