<?xml version="1.0" encoding="utf-8" ?>
<svg xmlns="http://www.w3.org/2000/svg" xmlns:ev="http://www.w3.org/2001/xml-events" xmlns:ifc="http://www.ifcopenshell.org/ns" xmlns:xlink="http://www.w3.org/1999/xlink" baseProfile="full" data-scale="1/4&quot;=1'-0&quot;" height="379.4603905726442mm" id="root" version="1.1" viewBox="0 0 542.4250761667887 379.4603905726442" width="542.4250761667887mm">
  <defs/>
  <line class="GlobalId-27bCk0Ksz4tPDY0UHLrd3m IfcAnnotation PredefinedType-DIMENSION predefinedtype-DIMENSION" x1="242.39425659179688" x2="242.39425659179688" y1="320.09039306640625" y2="267.9933166503906"/>
  <text dominant-baseline="baseline" style="font-size: 0;" text-anchor="middle" transform="translate(241.39425659179688, 294.0418701171875) rotate(-90.00000250447816)">
    <tspan class="DIMENSION" dy="0em" x="0" y="0">8' - 2&quot;</tspan>
  </text>
  <line class="GlobalId-0lTcvEQ1j3Rv97311G0Z__ IfcAnnotation PredefinedType-LINEWORK medium predefinedtype-LINEWORK" x1="214.14288330078125" x2="172.99545288085938" y1="216.0946807861328" y2="216.0946807861328"/>
  <line class="GlobalId-0lTcvEQ1j3Rv97311G0Z__ IfcAnnotation PredefinedType-LINEWORK medium predefinedtype-LINEWORK" x1="172.99545288085938" x2="172.99545288085938" y1="216.0946807861328" y2="114.7628173828125"/>
  <line class="GlobalId-0lTcvEQ1j3Rv97311G0Z__ IfcAnnotation PredefinedType-LINEWORK medium predefinedtype-LINEWORK" x1="172.99545288085938" x2="185.69544982910156" y1="114.7628173828125" y2="114.7628173828125"/>
  <line class="GlobalId-0lTcvEQ1j3Rv97311G0Z__ IfcAnnotation PredefinedType-LINEWORK medium predefinedtype-LINEWORK" x1="185.69544982910156" x2="185.69544982910156" y1="114.7628173828125" y2="203.39476013183594"/>
  <line class="GlobalId-0lTcvEQ1j3Rv97311G0Z__ IfcAnnotation PredefinedType-LINEWORK medium predefinedtype-LINEWORK" x1="185.69544982910156" x2="214.14288330078125" y1="203.39476013183594" y2="203.39476013183594"/>
  <line class="GlobalId-0lTcvEQ1j3Rv97311G0Z__ IfcAnnotation PredefinedType-LINEWORK medium predefinedtype-LINEWORK" x1="214.14288330078125" x2="214.14288330078125" y1="203.39476013183594" y2="216.0946807861328"/>
  <line class="GlobalId-1FbFbr9MXDuuMJimtEDmbR IfcAnnotation PredefinedType-LINEWORK predefinedtype-LINEWORK" x1="487.541259765625" x2="421.46405029296875" y1="324.3963317871094" y2="324.3963317871094"/>
  <line class="GlobalId-1FbFbr9MXDuuMJimtEDmbR IfcAnnotation PredefinedType-LINEWORK predefinedtype-LINEWORK" x1="421.46405029296875" x2="421.46405029296875" y1="324.3963317871094" y2="306.4933776855469"/>
  <line class="GlobalId-1FbFbr9MXDuuMJimtEDmbR IfcAnnotation PredefinedType-LINEWORK predefinedtype-LINEWORK" x1="421.46405029296875" x2="487.541259765625" y1="306.4933776855469" y2="306.4933776855469"/>
  <line class="GlobalId-1FbFbr9MXDuuMJimtEDmbR IfcAnnotation PredefinedType-LINEWORK predefinedtype-LINEWORK" x1="487.541259765625" x2="487.541259765625" y1="306.4933776855469" y2="324.3963317871094"/>
  <line class="GlobalId-1jJ7vk2eb8jAMQ1dPRk8dy IfcAnnotation PredefinedType-SECTION predefinedtype-SECTION" x1="420.62799072265625" x2="295.62799072265625" y1="-162.71080017089844" y2="-162.71080017089844"/>
  <use transform="rotate(180.00000500895632, 420.62799072265625, -162.71080017089844)" x="420.62799072265625" xlink:href="#section-arrow" y="-162.71080017089844"/>
  <use x="420.62799072265625" xlink:href="#section-tag" y="-162.71080017089844"/>
  <text class="SECTION" dominant-baseline="middle" text-anchor="middle" x="420.62799072265625" y="-165.21080017089844">-</text>
  <text class="SECTION" dominant-baseline="middle" text-anchor="middle" x="420.62799072265625" y="-160.21080017089844">-</text>
  <use transform="rotate(180.00000500895632, 295.62799072265625, -162.71080017089844)" x="295.62799072265625" xlink:href="#section-arrow" y="-162.71080017089844"/>
  <use x="295.62799072265625" xlink:href="#section-tag" y="-162.71080017089844"/>
  <text class="SECTION" dominant-baseline="middle" text-anchor="middle" x="295.62799072265625" y="-165.21080017089844">-</text>
  <text class="SECTION" dominant-baseline="middle" text-anchor="middle" x="295.62799072265625" y="-160.21080017089844">-</text>
  <line class="GlobalId-0wDMr8ZPjDrBqmrjJPwHIt IfcAnnotation PredefinedType-LINEWORK dashed predefinedtype-LINEWORK" x1="172.99545288085938" x2="185.69544982910156" y1="153.72120666503906" y2="153.72120666503906"/>
  <line class="GlobalId-2bQBGuQpT5uBAR9NWZdAb8 IfcAnnotation PredefinedType-DIMENSION predefinedtype-DIMENSION" x1="196.81515502929688" x2="196.81515502929688" y1="235.14463806152344" y2="215.91571044921875"/>
  <text dominant-baseline="baseline" style="font-size: 0;" text-anchor="middle" transform="translate(195.81515502929688, 225.53018188476562) rotate(-90.00000250447816)">
    <tspan class="DIMENSION" dy="0em" x="0" y="0">3'-0&quot; MIN.</tspan>
  </text>
  <line class="GlobalId-3aWuvBxyPFz9ntbZAOvlDw IfcAnnotation PredefinedType-DIMENSION predefinedtype-DIMENSION" x1="153.7665557861328" x2="172.99545288085938" y1="170.24757385253906" y2="170.24757385253906"/>
  <text dominant-baseline="baseline" style="font-size: 0;" text-anchor="middle" transform="translate(163.38101196289062, 169.24757385253906) rotate(0.0)">
    <tspan class="DIMENSION" dy="0em" x="0" y="0">3'-0&quot; MIN.</tspan>
  </text>
  <path class="GlobalId-2ah83d0XHAy93UMFU576gL IfcAnnotation PredefinedType-TEXTLEADER predefinedtype-TEXTLEADER" d="M 190.49149254957834 133.90798179551805 L 187.9786153634389 133.90782284979866 L 175.2619743347168 153.72120150173552"/>
  <text dominant-baseline="baseline" style="font-size: 0;" text-anchor="start" transform="translate(190.4915008544922, 133.90798950195312) rotate(-0.0)">
    <tspan class="GlobalId-2ah83d0XHAy93UMFU576gL IfcAnnotation PredefinedType-TEXTLEADER predefinedtype-TEXTLEADER" dy="0em" x="0" y="0">ADA COUNTER</tspan>
    <tspan class="GlobalId-2ah83d0XHAy93UMFU576gL IfcAnnotation PredefinedType-TEXTLEADER predefinedtype-TEXTLEADER" dy="1em" x="0" y="0">AT P.O.S. -</tspan>
    <tspan class="GlobalId-2ah83d0XHAy93UMFU576gL IfcAnnotation PredefinedType-TEXTLEADER predefinedtype-TEXTLEADER" dy="2em" x="0" y="0">36&quot; MIN. LONG</tspan>
    <tspan class="GlobalId-2ah83d0XHAy93UMFU576gL IfcAnnotation PredefinedType-TEXTLEADER predefinedtype-TEXTLEADER" dy="3em" x="0" y="0">36&quot; MAX HIGH</tspan>
    <tspan class="GlobalId-2ah83d0XHAy93UMFU576gL IfcAnnotation PredefinedType-TEXTLEADER predefinedtype-TEXTLEADER" dy="4em" x="0" y="0">ANYWHERE ALONG</tspan>
    <tspan class="GlobalId-2ah83d0XHAy93UMFU576gL IfcAnnotation PredefinedType-TEXTLEADER predefinedtype-TEXTLEADER" dy="5em" x="0" y="0">COUNTER</tspan>
  </text>
  <path class="GlobalId-0oP5QhzvH2aBTh9vg27j0Q IfcAnnotation PredefinedType-TEXTLEADER predefinedtype-TEXTLEADER" d="M 209.742267926534 188.91353218003954 L 207.2293907403946 188.91353218003954 L 196.29748662312824 176.57743700588588"/>
  <text dominant-baseline="baseline" style="font-size: 0;" text-anchor="start" transform="translate(209.74227905273438, 188.9135284423828) rotate(-0.0)">
    <tspan class="GlobalId-0oP5QhzvH2aBTh9vg27j0Q IfcAnnotation PredefinedType-TEXTLEADER predefinedtype-TEXTLEADER" dy="0em" x="0" y="0">30&quot;X48&quot; MIN. CLEAR</tspan>
    <tspan class="GlobalId-0oP5QhzvH2aBTh9vg27j0Q IfcAnnotation PredefinedType-TEXTLEADER predefinedtype-TEXTLEADER" dy="1em" x="0" y="0">AT ADA COUNTER</tspan>
  </text>
  <use transform="rotate(180.00000500895632, 265.8875427246094, -9.582015037536621)" x="265.8875427246094" xlink:href="#elevation-arrow" y="-9.582015037536621"/>
  <use x="265.8875427246094" xlink:href="#elevation-tag" y="-9.582015037536621"/>
  <text class="ELEVATION" dominant-baseline="middle" text-anchor="middle" x="265.8875427246094" y="-12.082015037536621">6</text>
  <text class="ELEVATION" dominant-baseline="middle" text-anchor="middle" x="265.8875427246094" y="-7.082015037536621">Axxx</text>
  <line class="GlobalId-0T7TnLHfX1ev1P5XNO7Cwn IfcAnnotation PredefinedType-LINEWORK dashed predefinedtype-LINEWORK" x1="172.99545288085938" x2="185.69544982910156" y1="172.95013427734375" y2="172.95013427734375"/>
  <line class="GlobalId-0nNKEnWs91sQtsvsKL0g39 IfcAnnotation PredefinedType-DIMENSION predefinedtype-DIMENSION" x1="192.6270751953125" x2="192.6270751953125" y1="172.95013427734375" y2="153.72119140625"/>
  <text dominant-baseline="baseline" style="font-size: 0;" text-anchor="middle" transform="translate(191.6270751953125, 163.33566284179688) rotate(-90.00000250447816)">
    <tspan class="DIMENSION" dy="0em" x="0" y="0">3'-0&quot; MIN.</tspan>
  </text>
  <line class="GlobalId-3sbkKo3zLDSPN25A3DfmGB IfcAnnotation PredefinedType-DIMENSION predefinedtype-DIMENSION" x1="251.20201110839844" x2="286.6852111816406" y1="329.4546813964844" y2="329.4546813964844"/>
  <text dominant-baseline="baseline" style="font-size: 0;" text-anchor="middle" transform="translate(268.943603515625, 328.4546813964844) rotate(0.0)">
    <tspan class="DIMENSION" dy="0em" x="0" y="0">5' - 7&quot;</tspan>
  </text>
  <use transform="rotate(-0.0, 252.16258239746094, 478.67413330078125)" x="252.16258239746094" xlink:href="#elevation-arrow" y="478.67413330078125"/>
  <use x="252.16258239746094" xlink:href="#elevation-tag" y="478.67413330078125"/>
  <text class="ELEVATION" dominant-baseline="middle" text-anchor="middle" x="252.16258239746094" y="476.17413330078125">-</text>
  <text class="ELEVATION" dominant-baseline="middle" text-anchor="middle" x="252.16258239746094" y="481.17413330078125">-</text>
  <text dominant-baseline="middle" style="font-size: 0;" text-anchor="middle" transform="translate(465.9188232421875, 122.15983581542969) rotate(-0.0)">
    <tspan class="GlobalId-2huIFrQL5BlBA3Uzs2Axvf IfcAnnotation PredefinedType-TEXT regular predefinedtype-TEXT" dy="0em" x="0" y="0">DISPLAY</tspan>
    <tspan class="GlobalId-2huIFrQL5BlBA3Uzs2Axvf IfcAnnotation PredefinedType-TEXT regular predefinedtype-TEXT" dy="1em" x="0" y="0">AREA</tspan>
    <tspan class="GlobalId-2huIFrQL5BlBA3Uzs2Axvf IfcAnnotation PredefinedType-TEXT regular predefinedtype-TEXT" dy="2em" x="0" y="0">580SF</tspan>
    <tspan class="GlobalId-2huIFrQL5BlBA3Uzs2Axvf IfcAnnotation PredefinedType-TEXT regular predefinedtype-TEXT" dy="3em" x="0" y="0">9.7 OCCs</tspan>
  </text>
  <text dominant-baseline="middle" style="font-size: 0;" text-anchor="middle" transform="translate(266.5838623046875, 242.2816162109375) rotate(-0.0)">
    <tspan class="GlobalId-2n_lYn62zAD9yDtm2qRFva IfcAnnotation PredefinedType-TEXT regular predefinedtype-TEXT" dy="0em" x="0" y="0">COMMON</tspan>
    <tspan class="GlobalId-2n_lYn62zAD9yDtm2qRFva IfcAnnotation PredefinedType-TEXT regular predefinedtype-TEXT" dy="1em" x="0" y="0">CORRIDOR</tspan>
  </text>
  <text dominant-baseline="middle" style="font-size: 0;" text-anchor="middle" transform="translate(81.4642562866211, 152.3792266845703) rotate(-0.0)">
    <tspan class="GlobalId-2rHpdHkVXC4x9lC4EQsL4S IfcAnnotation PredefinedType-TEXT large predefinedtype-TEXT" dy="0em" x="0" y="0">EXISTING</tspan>
    <tspan class="GlobalId-2rHpdHkVXC4x9lC4EQsL4S IfcAnnotation PredefinedType-TEXT large predefinedtype-TEXT" dy="1em" x="0" y="0">MERCANTILE</tspan>
    <tspan class="GlobalId-2rHpdHkVXC4x9lC4EQsL4S IfcAnnotation PredefinedType-TEXT large predefinedtype-TEXT" dy="2em" x="0" y="0">TENANT</tspan>
    <tspan class="GlobalId-2rHpdHkVXC4x9lC4EQsL4S IfcAnnotation PredefinedType-TEXT large predefinedtype-TEXT" dy="3em" x="0" y="0">(3)</tspan>
  </text>
  <text dominant-baseline="middle" style="font-size: 0;" text-anchor="middle" transform="translate(319.5460205078125, 350.79571533203125) rotate(-0.0)">
    <tspan class="GlobalId-1R_I0a8219mwMd_oqHe64f IfcAnnotation PredefinedType-TEXT large predefinedtype-TEXT" dy="0em" x="0" y="0">EXISTING STAIR</tspan>
  </text>
  <text dominant-baseline="middle" style="font-size: 0;" text-anchor="middle" transform="translate(266.4148254394531, 161.9290008544922) rotate(-0.0)">
    <tspan class="GlobalId-2XfmCBLan74x1lR0v_WBxK IfcAnnotation PredefinedType-TEXT large predefinedtype-TEXT" dy="0em" x="0" y="0">NEW MERCANTILE</tspan>
    <tspan class="GlobalId-2XfmCBLan74x1lR0v_WBxK IfcAnnotation PredefinedType-TEXT large predefinedtype-TEXT" dy="1em" x="0" y="0">TENANT (1)</tspan>
    <tspan class="GlobalId-2XfmCBLan74x1lR0v_WBxK IfcAnnotation PredefinedType-TEXT large predefinedtype-TEXT" dy="2em" x="0" y="0">(REPAIR ONLY)</tspan>
    <tspan class="GlobalId-2XfmCBLan74x1lR0v_WBxK IfcAnnotation PredefinedType-TEXT large predefinedtype-TEXT" dy="3em" x="0" y="0">480 SF</tspan>
    <tspan class="GlobalId-2XfmCBLan74x1lR0v_WBxK IfcAnnotation PredefinedType-TEXT large predefinedtype-TEXT" dy="4em" x="0" y="0">8 OCCs</tspan>
  </text>
  <text dominant-baseline="middle" style="font-size: 0;" text-anchor="middle" transform="translate(202.03599548339844, 127.22384643554688) rotate(-0.0)">
    <tspan class="GlobalId-3ji1OL$LnCgxLV2WrojiXo IfcAnnotation PredefinedType-TEXT regular predefinedtype-TEXT" dy="0em" x="0" y="0">EXIT SIGN</tspan>
  </text>
  <text dominant-baseline="middle" style="font-size: 0;" text-anchor="middle" transform="translate(461.6376647949219, 244.22552490234375) rotate(-0.0)">
    <tspan class="GlobalId-3u$L6F1IDDtR3jcdF802Q2 IfcAnnotation PredefinedType-TEXT regular predefinedtype-TEXT" dy="0em" x="0" y="0">STORAGE</tspan>
    <tspan class="GlobalId-3u$L6F1IDDtR3jcdF802Q2 IfcAnnotation PredefinedType-TEXT regular predefinedtype-TEXT" dy="1em" x="0" y="0">220SF</tspan>
    <tspan class="GlobalId-3u$L6F1IDDtR3jcdF802Q2 IfcAnnotation PredefinedType-TEXT regular predefinedtype-TEXT" dy="2em" x="0" y="0">0.7 OCCs</tspan>
  </text>
  <text dominant-baseline="middle" style="font-size: 0;" text-anchor="middle" transform="translate(296.2052307128906, 98.64492797851562) rotate(-0.0)">
    <tspan class="GlobalId-2YciVqsCj2bATXrtpQDf5U IfcAnnotation PredefinedType-TEXT large predefinedtype-TEXT" dy="0em" x="0" y="0">EXISTING STAIR</tspan>
  </text>
  <text dominant-baseline="middle" style="font-size: 0;" text-anchor="middle" transform="translate(357.31842041015625, 112.82542419433594) rotate(-0.0)">
    <tspan class="GlobalId-0Ijl63hB54MRRZAOVlf3D8 IfcAnnotation PredefinedType-TEXT regular predefinedtype-TEXT" dy="0em" x="0" y="0">STORAGE</tspan>
    <tspan class="GlobalId-0Ijl63hB54MRRZAOVlf3D8 IfcAnnotation PredefinedType-TEXT regular predefinedtype-TEXT" dy="1em" x="0" y="0">380 SF</tspan>
    <tspan class="GlobalId-0Ijl63hB54MRRZAOVlf3D8 IfcAnnotation PredefinedType-TEXT regular predefinedtype-TEXT" dy="2em" x="0" y="0">1.3 OCCs</tspan>
  </text>
  <text dominant-baseline="middle" style="font-size: 0;" text-anchor="middle" transform="translate(297.8369445800781, 256.9725036621094) rotate(-0.0)">
    <tspan class="GlobalId-3XC62fvCv07BTnxW1jFode IfcAnnotation PredefinedType-TEXT regular predefinedtype-TEXT" dy="0em" x="0" y="0">EXIT SIGN</tspan>
  </text>
  <text dominant-baseline="baseline" style="font-size: 0;" text-anchor="start" transform="translate(424.8782958984375, 312.1524963378906) rotate(-0.0)">
    <tspan class="GlobalId-02GtOYr8v6gv8hEMMIcGK8 IfcAnnotation PredefinedType-TEXT predefinedtype-TEXT" dy="0em" x="0" y="0">MERCANTILE TENANT (1): 8 OCCUPANTS</tspan>
    <tspan class="GlobalId-02GtOYr8v6gv8hEMMIcGK8 IfcAnnotation PredefinedType-TEXT predefinedtype-TEXT" dy="1em" x="0" y="0">MERCANTILE TENANT (2): 17 OCCUPANTS</tspan>
    <tspan class="GlobalId-02GtOYr8v6gv8hEMMIcGK8 IfcAnnotation PredefinedType-TEXT predefinedtype-TEXT" dy="2em" x="0" y="0">TOTAL: 25 OCCUPANTS</tspan>
    <tspan class="GlobalId-02GtOYr8v6gv8hEMMIcGK8 IfcAnnotation PredefinedType-TEXT predefinedtype-TEXT" dy="3em" x="0" y="0">(1) RESTROOM REQUIRED, (1) PROVIDED</tspan>
  </text>
  <text dominant-baseline="middle" style="font-size: 0;" text-anchor="middle" transform="translate(269.0417175292969, 285.0250549316406) rotate(-0.0)">
    <tspan class="GlobalId-1xn_NOid5CIQKmTaG2ULeI IfcAnnotation PredefinedType-TEXT large predefinedtype-TEXT" dy="0em" x="0" y="0">EXISTING</tspan>
    <tspan class="GlobalId-1xn_NOid5CIQKmTaG2ULeI IfcAnnotation PredefinedType-TEXT large predefinedtype-TEXT" dy="1em" x="0" y="0">ADA</tspan>
    <tspan class="GlobalId-1xn_NOid5CIQKmTaG2ULeI IfcAnnotation PredefinedType-TEXT large predefinedtype-TEXT" dy="2em" x="0" y="0">RESTROOM</tspan>
  </text>
  <text dominant-baseline="middle" style="font-size: 0;" text-anchor="middle" transform="translate(439.6624450683594, 57.62596130371094) rotate(-0.0)">
    <tspan class="GlobalId-2yiz3dz3H7IuzYfGWL30Zq IfcAnnotation PredefinedType-TEXT large predefinedtype-TEXT" dy="0em" x="0" y="0">EXISTING</tspan>
    <tspan class="GlobalId-2yiz3dz3H7IuzYfGWL30Zq IfcAnnotation PredefinedType-TEXT large predefinedtype-TEXT" dy="1em" x="0" y="0">MERCANTILE</tspan>
    <tspan class="GlobalId-2yiz3dz3H7IuzYfGWL30Zq IfcAnnotation PredefinedType-TEXT large predefinedtype-TEXT" dy="2em" x="0" y="0">TENANT</tspan>
    <tspan class="GlobalId-2yiz3dz3H7IuzYfGWL30Zq IfcAnnotation PredefinedType-TEXT large predefinedtype-TEXT" dy="3em" x="0" y="0">(2)</tspan>
  </text>
</svg>
