<?xml version="1.0" encoding="utf-8" ?>
<svg xmlns="http://www.w3.org/2000/svg" xmlns:ev="http://www.w3.org/2001/xml-events" xmlns:ifc="http://www.ifcopenshell.org/ns" xmlns:xlink="http://www.w3.org/1999/xlink" baseProfile="full" data-scale="3/16&quot;=1'-0&quot;" height="350.0000536441803mm" id="root" version="1.1" viewBox="0 0 280.00004291534424 350.0000536441803" width="280.00004291534424mm">
  <defs/>
  <path class="GlobalId-2YNNcz1Oj4gRKvQhiQesag IfcAnnotation PredefinedType-PLANLEVEL" d="M 57.549929618835456 265.0751322507858 L 77.47023403644562 265.07483422756195"/>
  <text class="PLANLEVEL" dominant-baseline="baseline" text-anchor="start" x="57.549930572509766" y="264.07513427734375">-3' - 6&quot;</text>
  <line class="GlobalId-0PUrjf6rX3SueBSH2WpU_B IfcAnnotation PredefinedType-DIMENSION oblique" x1="55.940032958984375" x2="90.91767883300781" y1="187.8055419921875" y2="187.8055419921875"/>
  <text dominant-baseline="baseline" style="font-size: 0;" text-anchor="middle" transform="translate(73.4288558959961, 186.8055419921875) rotate(0.0)">
    <tspan class="DIMENSION" dy="0em" x="0" y="0">7' - 4&quot;</tspan>
  </text>
  <line class="GlobalId-0PUrjf6rX3SueBSH2WpU_B IfcAnnotation PredefinedType-DIMENSION oblique" x1="90.91767883300781" x2="109.90777587890625" y1="187.8055419921875" y2="187.8055419921875"/>
  <text dominant-baseline="baseline" style="font-size: 0;" text-anchor="middle" transform="translate(100.41272735595703, 186.8055419921875) rotate(0.0)">
    <tspan class="DIMENSION" dy="0em" x="0" y="0">4' - 0&quot;</tspan>
  </text>
  <line class="GlobalId-0nIZLa2qjBR93dLiDrr42C IfcAnnotation PredefinedType-DIMENSION oblique" x1="101.6010971069336" x2="101.6010971069336" y1="78.08097076416016" y2="59.989498138427734"/>
  <text dominant-baseline="baseline" style="font-size: 0;" text-anchor="middle" transform="translate(100.6010971069336, 69.03523254394531) rotate(-90.00000250447816)">
    <tspan class="DIMENSION" dy="0em" x="0" y="0">3' - 10&quot;</tspan>
  </text>
  <line class="GlobalId-0nIZLa2qjBR93dLiDrr42C IfcAnnotation PredefinedType-DIMENSION oblique" x1="101.6010971069336" x2="101.6010971069336" y1="59.989498138427734" y2="44.78009033203125"/>
  <text dominant-baseline="baseline" style="font-size: 0;" text-anchor="middle" transform="translate(100.6010971069336, 52.384796142578125) rotate(-90.00000250447816)">
    <tspan class="DIMENSION" dy="0em" x="0" y="0">3' - 2&quot;</tspan>
  </text>
  <line class="GlobalId-0nIZLa2qjBR93dLiDrr42C IfcAnnotation PredefinedType-DIMENSION oblique" x1="101.6010971069336" x2="101.6010971069336" y1="44.78009033203125" y2="23.347660064697266"/>
  <text dominant-baseline="baseline" style="font-size: 0;" text-anchor="middle" transform="translate(100.6010971069336, 34.063873291015625) rotate(-90.00000250447816)">
    <tspan class="DIMENSION" dy="0em" x="0" y="0">4' - 6&quot;</tspan>
  </text>
  <path class="GlobalId-0h0GvKIjT2_A9Tsw8JpeuT IfcAnnotation PredefinedType-TEXTLEADER" d="M 43.68973374366761 154.5633226633072 L 47.746038436889656 154.5633226633072 L 74.797323346138 174.75147545337677"/>
  <text dominant-baseline="middle" style="font-size: 0;" text-anchor="end" transform="translate(43.689735412597656, 154.56332397460938) rotate(-0.0)">
    <tspan class="GlobalId-0h0GvKIjT2_A9Tsw8JpeuT IfcAnnotation PredefinedType-TEXTLEADER" dy="0em" x="0" y="0">NEW BEAM</tspan>
  </text>
  <line class="GlobalId-3x5BBbX391dg47m1$D8YNR IfcAnnotation PredefinedType-DIMENSION oblique" x1="48.0287971496582" x2="48.0287971496582" y1="209.85458374023438" y2="163.37374877929688"/>
  <text dominant-baseline="baseline" style="font-size: 0;" text-anchor="middle" transform="translate(47.0287971496582, 186.61416625976562) rotate(-90.00000250447816)">
    <tspan class="DIMENSION" dy="0em" x="0" y="0">9' - 9&quot;</tspan>
  </text>
  <line class="GlobalId-3QMwBx_D5B$A4J$E_mg1Y_ IfcAnnotation PredefinedType-HIDDENLINE" x1="55.94015884399414" x2="92.48704528808594" y1="174.90472412109375" y2="174.43336486816406"/>
  <path class="GlobalId-3JcsX0rCLByByFqeylTXAs IfcAnnotation PredefinedType-PLANLEVEL" d="M 103.13623249530792 218.09543669223785 L 114.38826322555542 218.09513866901398"/>
  <text class="PLANLEVEL" dominant-baseline="baseline" text-anchor="start" x="103.13623046875" y="217.09544372558594">0&quot;</text>
  <path class="GlobalId-33Z1$u_kT9OBNANE$5B9RL IfcAnnotation PredefinedType-TEXTLEADER" d="M 96.95707857608795 315.71681797504425 L 93.3050274848938 315.71681797504425 L 68.54038536548615 298.6702471971512"/>
  <text dominant-baseline="middle" style="font-size: 0;" text-anchor="start" transform="translate(96.95707702636719, 315.716796875) rotate(-0.0)">
    <tspan class="GlobalId-33Z1$u_kT9OBNANE$5B9RL IfcAnnotation PredefinedType-TEXTLEADER" dy="0em" x="0" y="0">ASPHALT DRIVEWAY</tspan>
  </text>
  <path class="GlobalId-2KHmIqv_D179IsAazqQi3j IfcAnnotation PredefinedType-TEXTLEADER" d="M 142.06520318984985 14.932245016098022 L 138.4131669998169 14.932245016098022 L 113.64850997924805 22.166311740875244"/>
  <text dominant-baseline="middle" style="font-size: 0;" text-anchor="start" transform="translate(142.06520080566406, 14.932245254516602) rotate(-0.0)">
    <tspan class="GlobalId-2KHmIqv_D179IsAazqQi3j IfcAnnotation PredefinedType-TEXTLEADER" dy="0em" x="0" y="0">EXISTING ASPHALT DRIVEWAY</tspan>
  </text>
  <path class="GlobalId-0nwJqKiyPDRvxhpYLPRYPy IfcAnnotation PredefinedType-TEXTLEADER" d="M 96.95707857608795 308.4835559129715 L 93.3050274848938 308.4835559129715 L 88.29743266105652 291.43698513507843"/>
  <text dominant-baseline="middle" style="font-size: 0;" text-anchor="start" transform="translate(96.95707702636719, 308.4835510253906) rotate(-0.0)">
    <tspan class="GlobalId-0nwJqKiyPDRvxhpYLPRYPy IfcAnnotation PredefinedType-TEXTLEADER" dy="0em" x="0" y="0">COMPOSITE DECKING</tspan>
  </text>
  <path class="GlobalId-1TpU6Ds1fFvPMvpJeda54n IfcAnnotation PredefinedType-TEXTLEADER" d="M 118.84350180625916 192.58587062358856 L 104.17810678482056 203.71778309345245"/>
  <text dominant-baseline="baseline" style="font-size: 0;" text-anchor="start" transform="translate(118.843505859375, 192.58587646484375) rotate(-0.0)">
    <tspan class="GlobalId-1TpU6Ds1fFvPMvpJeda54n IfcAnnotation PredefinedType-TEXTLEADER" dy="0em" x="0" y="0">W/D &amp; LINEN</tspan>
  </text>
  <path class="GlobalId-3BrySRXC5ATfcClaNPQKls IfcAnnotation PredefinedType-FALL" d="M 154.87319827079773 262.7371698617935 L 154.87319827079773 255.09704649448395"/>
  <text class="RADIUS" dominant-baseline="middle" text-anchor="middle" x="154.87319946289062" y="264.7371826171875">6°</text>
  <path class="GlobalId-0pm6CC4yP9YQOss0$qcKnt IfcAnnotation PredefinedType-PLANLEVEL" d="M 126.731938123703 70.36176323890686 L 137.9839539527893 70.36148011684418"/>
  <text class="PLANLEVEL" dominant-baseline="baseline" text-anchor="start" x="126.73194122314453" y="69.36176300048828">0&quot;</text>
  <line class="GlobalId-1W0eWoX653CuhFyBhOGjAO IfcAnnotation PredefinedType-DIMENSION oblique" x1="126.38890838623047" x2="126.38890838623047" y1="302.9219055175781" y2="300.5406188964844"/>
  <text dominant-baseline="baseline" style="font-size: 0;" text-anchor="middle" transform="translate(125.38890838623047, 297.5406188964844) rotate(-90.00000250447816)">
    <tspan class="DIMENSION" dy="0em" x="0" y="0">6&quot;</tspan>
  </text>
  <line class="GlobalId-2HK64YKNzB19Q1RoLokNKt IfcAnnotation PredefinedType-DIMENSION oblique" x1="88.82267761230469" x2="88.82267761230469" y1="285.19976806640625" y2="212.63290405273438"/>
  <text dominant-baseline="baseline" style="font-size: 0;" text-anchor="middle" transform="translate(87.82267761230469, 248.9163360595703) rotate(-90.00000250447816)">
    <tspan class="DIMENSION" dy="0em" x="0" y="0">15' - 3&quot;</tspan>
  </text>
  <line class="GlobalId-031vpIU8LFQuuwGc28JpoW IfcAnnotation PredefinedType-DIMENSION oblique" x1="7.023096084594727" x2="53.16172409057617" y1="273.8587341308594" y2="273.8587341308594"/>
  <text dominant-baseline="baseline" style="font-size: 0;" text-anchor="middle" transform="translate(30.092409133911133, 272.8587341308594) rotate(0.0)">
    <tspan class="DIMENSION" dy="0em" x="0" y="0">9' - 8&quot;</tspan>
  </text>
  <line class="GlobalId-031vpIU8LFQuuwGc28JpoW IfcAnnotation PredefinedType-DIMENSION oblique" x1="53.16172409057617" x2="82.05968475341797" y1="273.8587341308594" y2="273.8587341308594"/>
  <text dominant-baseline="baseline" style="font-size: 0;" text-anchor="middle" transform="translate(67.61070251464844, 272.8587341308594) rotate(0.0)">
    <tspan class="DIMENSION" dy="0em" x="0" y="0">6' - 1&quot;</tspan>
  </text>
  <line class="GlobalId-031vpIU8LFQuuwGc28JpoW IfcAnnotation PredefinedType-DIMENSION oblique" x1="82.05968475341797" x2="143.06333923339844" y1="273.8587341308594" y2="273.8587341308594"/>
  <text dominant-baseline="baseline" style="font-size: 0;" text-anchor="middle" transform="translate(112.56150817871094, 272.8587341308594) rotate(0.0)">
    <tspan class="DIMENSION" dy="0em" x="0" y="0">12' - 10&quot;</tspan>
  </text>
  <line class="GlobalId-031vpIU8LFQuuwGc28JpoW IfcAnnotation PredefinedType-DIMENSION oblique" x1="143.06333923339844" x2="166.87583923339844" y1="273.8587341308594" y2="273.8587341308594"/>
  <text dominant-baseline="baseline" style="font-size: 0;" text-anchor="middle" transform="translate(154.96958923339844, 272.8587341308594) rotate(0.0)">
    <tspan class="DIMENSION" dy="0em" x="0" y="0">5' - 0&quot;</tspan>
  </text>
  <path class="GlobalId-0ZtpPbIzjCAhqzmpS4Gdx$ IfcAnnotation PredefinedType-FALL" d="M 102.77982652187347 295.2648550271988 L 110.41997969150543 295.2648550271988"/>
  <text class="RADIUS" dominant-baseline="middle" text-anchor="middle" x="100.77982330322266" y="295.2648620605469">6°</text>
  <path class="GlobalId-0im8bLb_HBF9tr6He5$Wwp IfcAnnotation PredefinedType-PLANLEVEL" d="M 37.95400857925416 257.7866166830063 L 57.874312996864326 257.7863186597824"/>
  <text class="PLANLEVEL" dominant-baseline="baseline" text-anchor="start" x="37.954010009765625" y="256.78662109375">-2' - 0&quot;</text>
  <path class="GlobalId-1JKF1DMybD7ftPyhlc$n$r IfcAnnotation PredefinedType-TEXTLEADER" d="M 174.02664422988892 71.3677853345871 L 170.10269165039062 71.3677853345871 L 153.79071831703186 65.29197096824646"/>
  <text dominant-baseline="middle" style="font-size: 0;" text-anchor="start" transform="translate(174.02664184570312, 71.36778259277344) rotate(-0.0)">
    <tspan class="GlobalId-1JKF1DMybD7ftPyhlc$n$r IfcAnnotation PredefinedType-TEXTLEADER" dy="0em" x="0" y="0">COMPOSITE DECKING</tspan>
  </text>
  <line class="GlobalId-03QtulwlP0ShaCNF9TrD_d IfcAnnotation PredefinedType-DIMENSION oblique" x1="135.23751831054688" x2="135.23751831054688" y1="300.5406188964844" y2="285.19976806640625"/>
  <text dominant-baseline="baseline" style="font-size: 0;" text-anchor="middle" transform="translate(134.23751831054688, 292.87017822265625) rotate(-90.00000250447816)">
    <tspan class="DIMENSION" dy="0em" x="0" y="0">3' - 3&quot;</tspan>
  </text>
  <line class="GlobalId-03QtulwlP0ShaCNF9TrD_d IfcAnnotation PredefinedType-DIMENSION oblique" x1="135.23751831054688" x2="135.23751831054688" y1="285.19976806640625" y2="212.63290405273438"/>
  <text dominant-baseline="baseline" style="font-size: 0;" text-anchor="middle" transform="translate(134.23751831054688, 248.9163360595703) rotate(-90.00000250447816)">
    <tspan class="DIMENSION" dy="0em" x="0" y="0">15' - 3&quot;</tspan>
  </text>
  <line class="GlobalId-1SJNz9Tt97OwSDRSgK8F4_ IfcAnnotation PredefinedType-DIMENSION oblique" x1="7.023096084594727" x2="53.16156005859375" y1="322.0970764160156" y2="322.0970764160156"/>
  <text dominant-baseline="baseline" style="font-size: 0;" text-anchor="middle" transform="translate(30.092329025268555, 321.0970764160156) rotate(0.0)">
    <tspan class="DIMENSION" dy="0em" x="0" y="0">9' - 8&quot;</tspan>
  </text>
  <line class="GlobalId-1SJNz9Tt97OwSDRSgK8F4_ IfcAnnotation PredefinedType-DIMENSION oblique" x1="53.16156005859375" x2="82.48111724853516" y1="322.0970764160156" y2="322.0970764160156"/>
  <text dominant-baseline="baseline" style="font-size: 0;" text-anchor="middle" transform="translate(67.82133483886719, 321.0970764160156) rotate(0.0)">
    <tspan class="DIMENSION" dy="0em" x="0" y="0">6' - 2&quot;</tspan>
  </text>
  <path class="GlobalId-3hgYu5iHP83wrnASMGb7Oi IfcAnnotation PredefinedType-TEXTLEADER" d="M 44.02512907981873 160.14130413532257 L 48.08143377304078 160.14130413532257 L 62.73662149906159 172.76300489902496"/>
  <text dominant-baseline="middle" style="font-size: 0;" text-anchor="end" transform="translate(44.02513122558594, 160.1413116455078) rotate(-0.0)">
    <tspan class="GlobalId-3hgYu5iHP83wrnASMGb7Oi IfcAnnotation PredefinedType-TEXTLEADER" dy="0em" x="0" y="0">ACCESSIBLE </tspan>
    <tspan class="GlobalId-3hgYu5iHP83wrnASMGb7Oi IfcAnnotation PredefinedType-TEXTLEADER" dy="1em" x="0" y="0">TUB/SHOWER</tspan>
  </text>
  <path class="GlobalId-1Wr4lRw6PB0hJHotveX1n7 IfcAnnotation PredefinedType-TEXTLEADER" d="M 41.274911165237434 216.70477092266083 L 45.33121585845948 216.70477092266083 L 73.34842383861542 207.27108418941498"/>
  <text dominant-baseline="middle" style="font-size: 0;" text-anchor="end" transform="translate(41.2749137878418, 216.70477294921875) rotate(-0.0)">
    <tspan class="GlobalId-1Wr4lRw6PB0hJHotveX1n7 IfcAnnotation PredefinedType-TEXTLEADER" dy="0em" x="0" y="0">RELOCATE VENT?</tspan>
  </text>
  <path class="GlobalId-0hy0GEr$DEaOFozWEj6FG7 IfcAnnotation PredefinedType-TEXTLEADER" d="M 43.15311312675477 147.58716523647308 L 47.209417819976814 147.58716523647308 L 85.26155948638916 169.11689937114716"/>
  <text dominant-baseline="middle" style="font-size: 0;" text-anchor="end" transform="translate(43.153114318847656, 147.587158203125) rotate(-0.0)">
    <tspan class="GlobalId-0hy0GEr$DEaOFozWEj6FG7 IfcAnnotation PredefinedType-TEXTLEADER" dy="0em" x="0" y="0">LINEN</tspan>
  </text>
  <path class="GlobalId-0ooQVMFjH0j9f5Vgea9EKw IfcAnnotation PredefinedType-TEXTLEADER" d="M 105.18929958343506 279.2743891477585 L 99.92221593856812 279.2743891477585 L 92.72280931472778 284.86625850200653"/>
  <text dominant-baseline="middle" style="font-size: 0;" text-anchor="start" transform="translate(105.18930053710938, 279.2744140625) rotate(-0.0)">
    <tspan class="GlobalId-0ooQVMFjH0j9f5Vgea9EKw IfcAnnotation PredefinedType-TEXTLEADER" dy="0em" x="0" y="0">RAILING</tspan>
  </text>
</svg>
