<svg xmlns="http://www.w3.org/2000/svg" xmlns:xlink="http://www.w3.org/1999/xlink" xmlns:ifc="http://www.ifcopenshell.org/ns" width="1083.33mm" height="1083.33mm" viewBox="0 0 1083.33 1083.33">
    <defs>
        <marker id="arrowend" markerWidth="10" markerHeight="7" refX="10" refY="3.5" orient="auto">
          <polygon points="0 0, 10 3.5, 0 7"/>
        </marker>
        <marker id="arrowstart" markerWidth="10" markerHeight="7" refX="0" refY="3.5" orient="auto">
          <polygon points="10 0, 0 3.5, 10 7"/>
        </marker>
    </defs>
    <g ifc:name="Elevation ORIGIN" class="section" ifc:plane="[[1.000000,0.000000,0.000000,0.000000],[0.000000,1.000000,0.000000,0.000000],[0.000000,0.000000,1.000000,12.213419],[0.000000,0.000000,0.000000,1.000000]]" ifc:matrix3="[[83.333336,0.000000,541.666771],[0.000000,83.333336,541.666771],[0.000000,0.000000,1.000000]]">
        <g class="projection">
            <path d="M508.858,495.629 L345.875,495.629"/>
            <path d="M508.858,481.342 L345.875,481.342"/>
            <path d="M508.858,500.392 L345.875,500.392"/>
            <path d="M508.858,499.863 L345.875,499.863"/>
            <path d="M508.858,481.871 L508.858,481.342"/>
            <path d="M508.858,499.863 L508.858,481.871"/>
            <path d="M508.858,500.392 L508.858,499.863"/>
            <path d="M508.858,495.629 L508.858,499.863"/>
            <path d="M508.858,486.104 L508.858,495.629"/>
            <path d="M345.875,481.871 L345.875,499.863"/>
            <path d="M345.875,481.871 L345.875,481.342"/>
            <path d="M345.875,486.104 L345.875,495.629"/>
            <path d="M345.875,499.863 L345.875,495.629"/>
            <path d="M345.875,499.863 L345.875,500.392"/>
            <path d="M508.858,481.871 L508.858,486.104"/>
            <path d="M345.875,486.104 L508.858,486.104"/>
            <path d="M345.875,481.871 L345.875,486.104"/>
            <path d="M345.875,481.871 L508.858,481.871"/>
            <path d="M319.417,109.867 L325.767,109.867"/>
            <path d="M325.767,109.867 L325.767,535.317"/>
            <path d="M325.767,535.317 L535.317,535.317"/>
            <path d="M535.317,109.867 L535.317,535.317"/>
            <path d="M541.667,109.867 L535.317,109.867"/>
            <path d="M541.667,541.667 L541.667,109.867"/>
            <path d="M319.417,541.667 L541.667,541.667"/>
            <path d="M319.417,109.867 L319.417,541.667"/>
            <path d="M1093.96,908.597 L584.984,908.597"/>
            <path d="M1093.96,1419.46 L1093.96,908.597"/>
            <path d="M584.984,1419.46 L1093.96,1419.46"/>
            <path d="M584.984,908.597 L584.984,1419.46"/>
        </g>
    </g>
</svg>