<?xml version="1.0" encoding="utf-8" ?>
<svg xmlns="http://www.w3.org/2000/svg" xmlns:ev="http://www.w3.org/2001/xml-events" xmlns:ifc="http://www.ifcopenshell.org/ns" xmlns:xlink="http://www.w3.org/1999/xlink" baseProfile="full" data-scale="3&quot;=1'-0&quot;" height="282.97704905737675mm" id="root" version="1.1" viewBox="0 0 324.99998807907104 282.97704905737675" width="324.99998807907104mm">
  <defs/>
  <path class="GlobalId-2zhOBe2dz71uAVjQyiQa0I IfcAnnotation PredefinedType-TEXTLEADER fill-bg" d="M 236.74926161766052 97.91684374446291 L 227.78472304344177 97.91684374446291 L 53.20128798484802 55.872979017442645"/>
  <text dominant-baseline="middle" filter="url(#fill-background)" style="font-size: 0;" text-anchor="start" transform="translate(236.749267578125, 97.91683959960938) rotate(-0.0)">
    <tspan class="GlobalId-2zhOBe2dz71uAVjQyiQa0I IfcAnnotation PredefinedType-TEXTLEADER fill-bg" dy="0em" x="0" y="0">EXISTING WOOD TRUSS</tspan>
  </text>
  <text dominant-baseline="middle" style="font-size: 0;" text-anchor="start" transform="translate(236.749267578125, 97.91683959960938) rotate(-0.0)">
    <tspan class="GlobalId-2zhOBe2dz71uAVjQyiQa0I IfcAnnotation PredefinedType-TEXTLEADER fill-bg" dy="0em" x="0" y="0">EXISTING WOOD TRUSS</tspan>
  </text>
  <path class="GlobalId-2llH4uqJTBeQhD24dC$L0i IfcAnnotation PredefinedType-TEXTLEADER fill-bg" d="M -5634.8938047885895 226.56703219050783 L -5643.858343362808 226.56703219050783 L -5660.1623594760895 212.27014288539308"/>
  <text dominant-baseline="baseline" filter="url(#fill-background)" style="font-size: 0;" text-anchor="start" transform="translate(-5634.89404296875, 226.56703186035156) rotate(-0.0)">
    <tspan class="GlobalId-2llH4uqJTBeQhD24dC$L0i IfcAnnotation PredefinedType-TEXTLEADER fill-bg" dy="0em" x="0" y="0">METAL STUD - 20 GA. - 24&quot; O.C.</tspan>
  </text>
  <text dominant-baseline="baseline" style="font-size: 0;" text-anchor="start" transform="translate(-5634.89404296875, 226.56703186035156) rotate(-0.0)">
    <tspan class="GlobalId-2llH4uqJTBeQhD24dC$L0i IfcAnnotation PredefinedType-TEXTLEADER fill-bg" dy="0em" x="0" y="0">METAL STUD - 20 GA. - 24&quot; O.C.</tspan>
  </text>
  <path class="GlobalId-0xTC6p9k50kAHMQ_PIbjEP IfcAnnotation PredefinedType-TEXTLEADER fill-bg" d="M 236.74926161766052 122.42853678995985 L 227.78472304344177 122.42853678995985 L 113.86260390281677 143.3402906660946"/>
  <text dominant-baseline="middle" filter="url(#fill-background)" style="font-size: 0;" text-anchor="start" transform="translate(236.749267578125, 122.42853546142578) rotate(-0.0)">
    <tspan class="GlobalId-0xTC6p9k50kAHMQ_PIbjEP IfcAnnotation PredefinedType-TEXTLEADER fill-bg" dy="0em" x="0" y="0">NON COMBUSTIBLE INSULATION - FILL ENTIRE CAVITY</tspan>
  </text>
  <text dominant-baseline="middle" style="font-size: 0;" text-anchor="start" transform="translate(236.749267578125, 122.42853546142578) rotate(-0.0)">
    <tspan class="GlobalId-0xTC6p9k50kAHMQ_PIbjEP IfcAnnotation PredefinedType-TEXTLEADER fill-bg" dy="0em" x="0" y="0">NON COMBUSTIBLE INSULATION - FILL ENTIRE CAVITY</tspan>
  </text>
  <line class="GlobalId-0VfaT_ctT1FPHm4Ihv2pXU IfcAnnotation PredefinedType-DIMENSION oblique, fill-bg" x1="72.65624237060547" x2="72.65624237060547" y1="198.90106201171875" y2="30.625999450683594"/>
  <text dominant-baseline="baseline" filter="url(#fill-background)" style="font-size: 0;" text-anchor="middle" transform="translate(71.65624237060547, 114.76353454589844) rotate(-90.00000250447816)">
    <tspan class="DIMENSION" dy="0em" x="0" y="0">UL L511 (2 HR)</tspan>
  </text>
  <text dominant-baseline="baseline" style="font-size: 0;" text-anchor="middle" transform="translate(71.65624237060547, 114.76353454589844) rotate(-90.00000250447816)">
    <tspan class="DIMENSION" dy="0em" x="0" y="0">UL L511 (2 HR)</tspan>
  </text>
  <path class="GlobalId-0nNqs6y_r1BvfIsCtAgIbG IfcAnnotation PredefinedType-TEXTLEADER fill-bg" d="M -5634.8938047885895 202.9625199758472 L -5643.858343362808 202.9625199758472 L -5659.284979104996 178.22903618449587"/>
  <text dominant-baseline="baseline" filter="url(#fill-background)" style="font-size: 0;" text-anchor="start" transform="translate(-5634.89404296875, 202.9625244140625) rotate(-0.0)">
    <tspan class="GlobalId-0nNqs6y_r1BvfIsCtAgIbG IfcAnnotation PredefinedType-TEXTLEADER fill-bg" dy="0em" x="0" y="0">METAL J-RUNNER</tspan>
  </text>
  <text dominant-baseline="baseline" style="font-size: 0;" text-anchor="start" transform="translate(-5634.89404296875, 202.9625244140625) rotate(-0.0)">
    <tspan class="GlobalId-0nNqs6y_r1BvfIsCtAgIbG IfcAnnotation PredefinedType-TEXTLEADER fill-bg" dy="0em" x="0" y="0">METAL J-RUNNER</tspan>
  </text>
  <path class="GlobalId-3YBxWBCNH1S9WaQXPXsK6j IfcAnnotation PredefinedType-TEXTLEADER fill-bg" d="M 236.56615614891052 173.61510023707766 L 227.60161757469177 173.61510023707766 L 193.97124648094177 184.14747938746828"/>
  <text dominant-baseline="middle" filter="url(#fill-background)" style="font-size: 0;" text-anchor="start" transform="translate(236.566162109375, 173.61509704589844) rotate(-0.0)">
    <tspan class="GlobalId-3YBxWBCNH1S9WaQXPXsK6j IfcAnnotation PredefinedType-TEXTLEADER fill-bg" dy="0em" x="0" y="0">EXISTING WOOD TRUSS</tspan>
  </text>
  <text dominant-baseline="middle" style="font-size: 0;" text-anchor="start" transform="translate(236.566162109375, 173.61509704589844) rotate(-0.0)">
    <tspan class="GlobalId-3YBxWBCNH1S9WaQXPXsK6j IfcAnnotation PredefinedType-TEXTLEADER fill-bg" dy="0em" x="0" y="0">EXISTING WOOD TRUSS</tspan>
  </text>
  <path class="GlobalId-1kAueqkFn6zO8V2LJ0vzV$ IfcAnnotation PredefinedType-TEXTLEADER fill-bg" d="M 236.74926161766052 85.15537008876223 L 227.78472304344177 85.15537008876223 L 139.07012343406677 36.97967753047365"/>
  <text dominant-baseline="middle" filter="url(#fill-background)" style="font-size: 0;" text-anchor="start" transform="translate(236.749267578125, 85.15536499023438) rotate(-0.0)">
    <tspan class="GlobalId-1kAueqkFn6zO8V2LJ0vzV$ IfcAnnotation PredefinedType-TEXTLEADER fill-bg" dy="0em" x="0" y="0">FIRE RATED SEALANT</tspan>
  </text>
  <text dominant-baseline="middle" style="font-size: 0;" text-anchor="start" transform="translate(236.749267578125, 85.15536499023438) rotate(-0.0)">
    <tspan class="GlobalId-1kAueqkFn6zO8V2LJ0vzV$ IfcAnnotation PredefinedType-TEXTLEADER fill-bg" dy="0em" x="0" y="0">FIRE RATED SEALANT</tspan>
  </text>
  <path class="GlobalId-3rbW7JnBzCzO$ohmyCHbFl IfcAnnotation PredefinedType-SECTIONLEVEL" d="M -5456.58740234375 791.738525390625 L -5681.59326171875 791.738525390625"/>
  <text dominant-baseline="baseline" style="font-size: 0;" text-anchor="start" transform="translate(-5456.58740234375, 788.238525390625) rotate(0.0)">
    <tspan class="SECTIONLEVEL" dy="0em" x="0" y="0">RL +0&quot;</tspan>
  </text>
  <path class="GlobalId-0E89xy12DFUwqCkhgbHso_ IfcAnnotation PredefinedType-TEXTLEADER fill-bg" d="M 236.56615614891052 131.89506661379951 L 227.60161757469177 131.89506661379951 L 165.36101698875427 151.18676554644722"/>
  <text dominant-baseline="middle" filter="url(#fill-background)" style="font-size: 0;" text-anchor="start" transform="translate(236.566162109375, 131.8950653076172) rotate(-0.0)">
    <tspan class="GlobalId-0E89xy12DFUwqCkhgbHso_ IfcAnnotation PredefinedType-TEXTLEADER fill-bg" dy="0em" x="0" y="0">METAL C-H STUDS 25 GUAGE 24&quot; O.C.</tspan>
  </text>
  <text dominant-baseline="middle" style="font-size: 0;" text-anchor="start" transform="translate(236.566162109375, 131.8950653076172) rotate(-0.0)">
    <tspan class="GlobalId-0E89xy12DFUwqCkhgbHso_ IfcAnnotation PredefinedType-TEXTLEADER fill-bg" dy="0em" x="0" y="0">METAL C-H STUDS 25 GUAGE 24&quot; O.C.</tspan>
  </text>
  <line class="GlobalId-2Tth0e_$n4wOJnYucsQnIi IfcAnnotation PredefinedType-DIMENSION oblique, fill-bg" x1="136.8194580078125" x2="173.32611083984375" y1="254.66299438476562" y2="254.66299438476562"/>
  <text dominant-baseline="baseline" filter="url(#fill-background)" style="font-size: 0;" text-anchor="middle" transform="translate(155.07278442382812, 253.66299438476562) rotate(0.0)">
    <tspan class="DIMENSION" dy="0em" x="0" y="0">UL U415, SYSTEM C</tspan>
  </text>
  <text dominant-baseline="baseline" style="font-size: 0;" text-anchor="middle" transform="translate(155.07278442382812, 253.66299438476562) rotate(0.0)">
    <tspan class="DIMENSION" dy="0em" x="0" y="0">UL U415, SYSTEM C</tspan>
  </text>
  <line class="GlobalId-23E$lg4fv9yAKAmCtr6zKM IfcAnnotation PredefinedType-DIMENSION oblique, fill-bg" x1="320.2606201171875" x2="320.2606201171875" y1="192.55101013183594" y2="30.625999450683594"/>
  <text dominant-baseline="baseline" filter="url(#fill-background)" style="font-size: 0;" text-anchor="middle" transform="translate(319.2606201171875, 111.5885009765625) rotate(-90.00000250447816)">
    <tspan class="DIMENSION" dy="0em" x="0" y="0">EXISTING FLOOR ASSEMBLY</tspan>
  </text>
  <text dominant-baseline="baseline" style="font-size: 0;" text-anchor="middle" transform="translate(319.2606201171875, 111.5885009765625) rotate(-90.00000250447816)">
    <tspan class="DIMENSION" dy="0em" x="0" y="0">EXISTING FLOOR ASSEMBLY</tspan>
  </text>
  <path class="GlobalId-3RXRwyb9X748T33FmPx$LO IfcAnnotation PredefinedType-TEXTLEADER fill-bg" d="M 242.56286025047302 247.63542637462038 L 233.91112685203552 247.63542637462038 L 127.74810194969177 194.0179489576282"/>
  <text dominant-baseline="middle" filter="url(#fill-background)" style="font-size: 0;" text-anchor="start" transform="translate(242.5628662109375, 247.6354217529297) rotate(-0.0)">
    <tspan class="GlobalId-3RXRwyb9X748T33FmPx$LO IfcAnnotation PredefinedType-TEXTLEADER fill-bg" dy="0em" x="0" y="0">25 GA. RESILIENT CHANNEL - 24&quot; O.C.</tspan>
  </text>
  <text dominant-baseline="middle" style="font-size: 0;" text-anchor="start" transform="translate(242.5628662109375, 247.6354217529297) rotate(-0.0)">
    <tspan class="GlobalId-3RXRwyb9X748T33FmPx$LO IfcAnnotation PredefinedType-TEXTLEADER fill-bg" dy="0em" x="0" y="0">25 GA. RESILIENT CHANNEL - 24&quot; O.C.</tspan>
  </text>
  <path class="GlobalId-2nOaMzBnT7hfgnuzrMkBT6 IfcAnnotation PredefinedType-TEXTLEADER fill-bg" d="M 241.32689833641052 239.62509855861086 L 232.93456435203552 239.62509855861086 L 131.55516982078552 189.38762173289675"/>
  <text dominant-baseline="middle" filter="url(#fill-background)" style="font-size: 0;" text-anchor="start" transform="translate(241.326904296875, 239.62509155273438) rotate(-0.0)">
    <tspan class="GlobalId-2nOaMzBnT7hfgnuzrMkBT6 IfcAnnotation PredefinedType-TEXTLEADER fill-bg" dy="0em" x="0" y="0">5/8&quot; GYP. BD @ CEILING</tspan>
  </text>
  <text dominant-baseline="middle" style="font-size: 0;" text-anchor="start" transform="translate(241.326904296875, 239.62509155273438) rotate(-0.0)">
    <tspan class="GlobalId-2nOaMzBnT7hfgnuzrMkBT6 IfcAnnotation PredefinedType-TEXTLEADER fill-bg" dy="0em" x="0" y="0">5/8&quot; GYP. BD @ CEILING</tspan>
  </text>
  <line class="GlobalId-3dxc3P9pH3$g9NsK2rPiwR IfcAnnotation PredefinedType-DIMENSION" x1="-111800.1796875" x2="-111800.1796875" y1="791.7381591796875" y2="735.8817138671875"/>
  <text dominant-baseline="baseline" style="font-size: 0;" text-anchor="middle" transform="translate(-111801.1796875, 763.8099365234375) rotate(-90.00000250447816)">
    <tspan class="DIMENSION" dy="0em" x="0" y="0">8 51/64&quot;</tspan>
  </text>
  <path class="GlobalId-0I_Q1x97L7JgoXwj0PepSB IfcAnnotation PredefinedType-EXISTING" d="M 174.04326796531677 314.4089005910816 L 174.04326796531677 35.388710352128925 L 60.69335341453552 35.38865074748415 L 60.70098280906677 187.78860792750734 L 38.47655653953552 187.78860792750734 L 38.47655653953552 35.388591142839374 L -3.8360655307769775 35.388710352128925 L -3.8360655307769775 30.62600121135134 L 326.2191712856293 30.62600121135134 L 326.211541891098 192.55107864970583 L 205.07201552391052 192.55107864970583 L 205.07201552391052 314.4088111841144 L 174.04326796531677 314.4089005910816"/>
  <path class="GlobalId-0TgGFcYybFJOmf6fGJy0OB IfcAnnotation PredefinedType-TEXTLEADER fill-bg" d="M -111808.61511826515 786.9329176866473 L -111836.53870224953 786.9329176866473"/>
  <text dominant-baseline="baseline" filter="url(#fill-background)" style="font-size: 0;" text-anchor="start" transform="translate(-111808.6171875, 786.9329223632812) rotate(-0.0)">
    <tspan class="GlobalId-0TgGFcYybFJOmf6fGJy0OB IfcAnnotation PredefinedType-TEXTLEADER fill-bg" dy="0em" x="0" y="0">TEXT</tspan>
  </text>
  <text dominant-baseline="baseline" style="font-size: 0;" text-anchor="start" transform="translate(-111808.6171875, 786.9329223632812) rotate(-0.0)">
    <tspan class="GlobalId-0TgGFcYybFJOmf6fGJy0OB IfcAnnotation PredefinedType-TEXTLEADER fill-bg" dy="0em" x="0" y="0">TEXT</tspan>
  </text>
  <path class="GlobalId-3G25b6L_H8UuJ5vgTV0ggg IfcAnnotation PredefinedType-TEXTLEADER fill-bg" d="M 236.74926161766052 104.72822413081545 L 227.78472304344177 104.72822413081545 L 156.93053603172302 96.32760510081667"/>
  <text dominant-baseline="middle" filter="url(#fill-background)" style="font-size: 0;" text-anchor="start" transform="translate(236.749267578125, 104.72822570800781) rotate(-0.0)">
    <tspan class="GlobalId-3G25b6L_H8UuJ5vgTV0ggg IfcAnnotation PredefinedType-TEXTLEADER fill-bg" dy="0em" x="0" y="0">BATT INSULATION - ENTIRE CAVITY</tspan>
  </text>
  <text dominant-baseline="middle" style="font-size: 0;" text-anchor="start" transform="translate(236.749267578125, 104.72822570800781) rotate(-0.0)">
    <tspan class="GlobalId-3G25b6L_H8UuJ5vgTV0ggg IfcAnnotation PredefinedType-TEXTLEADER fill-bg" dy="0em" x="0" y="0">BATT INSULATION - ENTIRE CAVITY</tspan>
  </text>
  <path class="GlobalId-1L26MGziTFoQUmRC0B768N IfcAnnotation PredefinedType-TEXTLEADER fill-bg" d="M 242.30346083641052 256.69151768321416 L 233.91112685203552 256.69151768321416 L 120.66039443016052 196.4600704633655"/>
  <text dominant-baseline="middle" filter="url(#fill-background)" style="font-size: 0;" text-anchor="start" transform="translate(242.303466796875, 256.6915283203125) rotate(-0.0)">
    <tspan class="GlobalId-1L26MGziTFoQUmRC0B768N IfcAnnotation PredefinedType-TEXTLEADER fill-bg" dy="0em" x="0" y="0">5/8&quot; GYP. BD @ CEILING</tspan>
  </text>
  <text dominant-baseline="middle" style="font-size: 0;" text-anchor="start" transform="translate(242.303466796875, 256.6915283203125) rotate(-0.0)">
    <tspan class="GlobalId-1L26MGziTFoQUmRC0B768N IfcAnnotation PredefinedType-TEXTLEADER fill-bg" dy="0em" x="0" y="0">5/8&quot; GYP. BD @ CEILING</tspan>
  </text>
  <path class="GlobalId-24aJHmp9n5e9i2aD$oPiAl IfcAnnotation PredefinedType-TEXTLEADER fill-bg" d="M 236.74926161766052 53.607942911333026 L 227.78472304344177 53.607942911333026 L 219.78148818016052 32.89342150325197"/>
  <text dominant-baseline="middle" filter="url(#fill-background)" style="font-size: 0;" text-anchor="start" transform="translate(236.749267578125, 53.60794448852539) rotate(-0.0)">
    <tspan class="GlobalId-24aJHmp9n5e9i2aD$oPiAl IfcAnnotation PredefinedType-TEXTLEADER fill-bg" dy="0em" x="0" y="0">EXISTING FLOOR SHEATHING</tspan>
  </text>
  <text dominant-baseline="middle" style="font-size: 0;" text-anchor="start" transform="translate(236.749267578125, 53.60794448852539) rotate(-0.0)">
    <tspan class="GlobalId-24aJHmp9n5e9i2aD$oPiAl IfcAnnotation PredefinedType-TEXTLEADER fill-bg" dy="0em" x="0" y="0">EXISTING FLOOR SHEATHING</tspan>
  </text>
  <path class="GlobalId-05G8DhsDPAEuMjkHzLwulj IfcAnnotation PredefinedType-TEXTLEADER fill-bg" d="M 236.74926161766052 60.445310922807636 L 227.78472304344177 60.445310922807636 L 170.67107558250427 37.00351938838381"/>
  <text dominant-baseline="middle" filter="url(#fill-background)" style="font-size: 0;" text-anchor="start" transform="translate(236.749267578125, 60.4453125) rotate(-0.0)">
    <tspan class="GlobalId-05G8DhsDPAEuMjkHzLwulj IfcAnnotation PredefinedType-TEXTLEADER fill-bg" dy="0em" x="0" y="0">FIRE RATED SEALANT</tspan>
  </text>
  <text dominant-baseline="middle" style="font-size: 0;" text-anchor="start" transform="translate(236.749267578125, 60.4453125) rotate(-0.0)">
    <tspan class="GlobalId-05G8DhsDPAEuMjkHzLwulj IfcAnnotation PredefinedType-TEXTLEADER fill-bg" dy="0em" x="0" y="0">FIRE RATED SEALANT</tspan>
  </text>
  <path class="GlobalId-0Qd$d2EW92RAhtXQ8dyGqj IfcAnnotation PredefinedType-SECTIONLEVEL" d="M 433.56475830078125 791.7384033203125 L -16.4398250579834 791.7384033203125"/>
  <text dominant-baseline="baseline" style="font-size: 0;" text-anchor="start" transform="translate(433.56475830078125, 788.2384033203125) rotate(0.0)">
    <tspan class="SECTIONLEVEL" dy="-1em" x="0" y="0">My Storey</tspan>
    <tspan class="SECTIONLEVEL" dy="0em" x="0" y="0">RL +0&quot;</tspan>
  </text>
  <line class="GlobalId-2AJp2F5pHFNQtl7z4CmQEN IfcAnnotation PredefinedType-DIMENSION oblique, fill-bg" x1="173.32611083984375" x2="205.072021484375" y1="254.64254760742188" y2="254.64254760742188"/>
  <text dominant-baseline="baseline" filter="url(#fill-background)" style="font-size: 0;" text-anchor="middle" transform="translate(189.19906616210938, 253.64254760742188) rotate(0.0)">
    <tspan class="DIMENSION" dy="0em" x="0" y="0">EXISTING WALL</tspan>
  </text>
  <text dominant-baseline="baseline" style="font-size: 0;" text-anchor="middle" transform="translate(189.19906616210938, 253.64254760742188) rotate(0.0)">
    <tspan class="DIMENSION" dy="0em" x="0" y="0">EXISTING WALL</tspan>
  </text>
  <path class="GlobalId-2fTyviIn1BiRtbonrrIRi1 IfcAnnotation PredefinedType-TEXTLEADER fill-bg" d="M -5634.8938047885895 215.32470211619753 L -5643.858343362808 215.32470211619753 L -5657.064825296402 197.24774584407228"/>
  <text dominant-baseline="baseline" filter="url(#fill-background)" style="font-size: 0;" text-anchor="start" transform="translate(-5634.89404296875, 215.32470703125) rotate(-0.0)">
    <tspan class="GlobalId-2fTyviIn1BiRtbonrrIRi1 IfcAnnotation PredefinedType-TEXTLEADER fill-bg" dy="0em" x="0" y="0">None</tspan>
  </text>
  <text dominant-baseline="baseline" style="font-size: 0;" text-anchor="start" transform="translate(-5634.89404296875, 215.32470703125) rotate(-0.0)">
    <tspan class="GlobalId-2fTyviIn1BiRtbonrrIRi1 IfcAnnotation PredefinedType-TEXTLEADER fill-bg" dy="0em" x="0" y="0">None</tspan>
  </text>
  <path class="GlobalId-2CLHlZTHfAffd98dtQ_Xzm IfcAnnotation PredefinedType-TEXTLEADER fill-bg" d="M 236.74926161766052 111.20510138804335 L 227.78472304344177 111.20510138804335 L 171.09832167625427 124.51773919398207"/>
  <text dominant-baseline="middle" filter="url(#fill-background)" style="font-size: 0;" text-anchor="start" transform="translate(236.749267578125, 111.2051010131836) rotate(-0.0)">
    <tspan class="GlobalId-2CLHlZTHfAffd98dtQ_Xzm IfcAnnotation PredefinedType-TEXTLEADER fill-bg" dy="0em" x="0" y="0">1&quot; GYPSUM LINER PANEL</tspan>
  </text>
  <text dominant-baseline="middle" style="font-size: 0;" text-anchor="start" transform="translate(236.749267578125, 111.2051010131836) rotate(-0.0)">
    <tspan class="GlobalId-2CLHlZTHfAffd98dtQ_Xzm IfcAnnotation PredefinedType-TEXTLEADER fill-bg" dy="0em" x="0" y="0">1&quot; GYPSUM LINER PANEL</tspan>
  </text>
  <marker id="revision-cloud-3FKwZRVFbEp9FYJkJhw3gh" markerHeight="15.0" markerUnits="userSpaceOnUse" markerWidth="19.0" orient="auto" refX="2.0" refY="5.0">
    <path d="m2.0,5.0 c0,-2 5,-2 5,0 c0,-2.5 5,-2.5 5,0 c0,-1.5 5,-1.5 5,0" style="fill: none; stroke:red; stroke-width:0.20"/>
  </marker>
  <polyline class="GlobalId-3FKwZRVFbEp9FYJkJhw3gh IfcAnnotation PredefinedType-REVISIONCLOUD" points="0.0,-0.0 0.0,-14.999999046325684" style="marker: url(#revision-cloud-3FKwZRVFbEp9FYJkJhw3gh); stroke: none; " transform="translate(65.04210662841797, 127.36761474609375) scale(1.000000, 0.897562)"/>
  <polyline class="GlobalId-3FKwZRVFbEp9FYJkJhw3gh IfcAnnotation PredefinedType-REVISIONCLOUD" points="0.0,0.0 5.723788738250732,13.86500072479248" style="marker: url(#revision-cloud-3FKwZRVFbEp9FYJkJhw3gh); stroke: none; " transform="translate(65.04210662841797, 100.44074249267578) scale(0.971038, 0.971038)"/>
  <polyline class="GlobalId-3FKwZRVFbEp9FYJkJhw3gh IfcAnnotation PredefinedType-REVISIONCLOUD" points="-0.0,0.0 -15.0,0.0" style="marker: url(#revision-cloud-3FKwZRVFbEp9FYJkJhw3gh); stroke: none; marker-end: none; " transform="translate(76.15813446044922, 127.36761474609375) scale(0.741069, 1.000000)"/>
  <polyline class="GlobalId-3FKwZRVFbEp9FYJkJhw3gh IfcAnnotation PredefinedType-REVISIONCLOUD" points="0.0,0.0 0.0,0.0" style="marker: url(#revision-cloud-3FKwZRVFbEp9FYJkJhw3gh); stroke: none; " transform="translate(65.04210662841797, 127.36761474609375) scale(1.000000, 1.000000)"/>
  <path class="GlobalId-2Bl7YZ6c98Iv_MJQUKGAmk IfcAnnotation PredefinedType-TEXTLEADER fill-bg" d="M -5634.8938047885895 180.392565580553 L -5643.858343362808 180.39262518519777 L -5650.473028421402 172.56814278895277"/>
  <text dominant-baseline="baseline" filter="url(#fill-background)" style="font-size: 0;" text-anchor="start" transform="translate(-5634.89404296875, 180.39256286621094) rotate(-0.0)">
    <tspan class="GlobalId-2Bl7YZ6c98Iv_MJQUKGAmk IfcAnnotation PredefinedType-TEXTLEADER fill-bg" dy="0em" x="0" y="0">UNDERSIDE OF FLOOR ASSEMBLY </tspan>
  </text>
  <text dominant-baseline="baseline" style="font-size: 0;" text-anchor="start" transform="translate(-5634.89404296875, 180.39256286621094) rotate(-0.0)">
    <tspan class="GlobalId-2Bl7YZ6c98Iv_MJQUKGAmk IfcAnnotation PredefinedType-TEXTLEADER fill-bg" dy="0em" x="0" y="0">UNDERSIDE OF FLOOR ASSEMBLY </tspan>
  </text>
  <path class="GlobalId-3yOuebKjT0RAx9C3J7i6r4 IfcAnnotation PredefinedType-TEXTLEADER fill-bg" d="M 236.74926161766052 69.60273012751955 L 227.78472304344177 69.60273012751955 L 173.18877577781677 46.85604796046633"/>
  <text dominant-baseline="middle" filter="url(#fill-background)" style="font-size: 0;" text-anchor="start" transform="translate(236.749267578125, 69.60272979736328) rotate(-0.0)">
    <tspan class="GlobalId-3yOuebKjT0RAx9C3J7i6r4 IfcAnnotation PredefinedType-TEXTLEADER fill-bg" dy="0em" x="0" y="0">METAL J-RUNNER</tspan>
  </text>
  <text dominant-baseline="middle" style="font-size: 0;" text-anchor="start" transform="translate(236.749267578125, 69.60272979736328) rotate(-0.0)">
    <tspan class="GlobalId-3yOuebKjT0RAx9C3J7i6r4 IfcAnnotation PredefinedType-TEXTLEADER fill-bg" dy="0em" x="0" y="0">METAL J-RUNNER</tspan>
  </text>
  <path class="GlobalId-0jGWYD_4j5X8WBKfYt20x0 IfcAnnotation PredefinedType-TEXTLEADER fill-bg" d="M 242.30346083641052 265.3034947835865 L 233.91112685203552 265.3034947835865 L 138.68102431297302 226.23670324916262"/>
  <text dominant-baseline="middle" filter="url(#fill-background)" style="font-size: 0;" text-anchor="start" transform="translate(242.303466796875, 265.3034973144531) rotate(-0.0)">
    <tspan class="GlobalId-0jGWYD_4j5X8WBKfYt20x0 IfcAnnotation PredefinedType-TEXTLEADER fill-bg" dy="0em" x="0" y="0">3/4&quot; GYP. PANELS</tspan>
  </text>
  <text dominant-baseline="middle" style="font-size: 0;" text-anchor="start" transform="translate(242.303466796875, 265.3034973144531) rotate(-0.0)">
    <tspan class="GlobalId-0jGWYD_4j5X8WBKfYt20x0 IfcAnnotation PredefinedType-TEXTLEADER fill-bg" dy="0em" x="0" y="0">3/4&quot; GYP. PANELS</tspan>
  </text>
  <marker id="revision-cloud-35eYbebvP5gQL84EtRtKCp" markerHeight="15.0" markerUnits="userSpaceOnUse" markerWidth="19.0" orient="auto" refX="2.0" refY="5.0">
    <path d="m2.0,5.0 c0,-2 5,-2 5,0 c0,-2.5 5,-2.5 5,0 c0,-1.5 5,-1.5 5,0" style="fill: none; stroke:red; stroke-width:0.20"/>
  </marker>
  <polyline class="GlobalId-35eYbebvP5gQL84EtRtKCp IfcAnnotation PredefinedType-REVISIONCLOUD" points="0.0,-0.0 0.0,-15.0" style="marker: url(#revision-cloud-35eYbebvP5gQL84EtRtKCp); stroke: none; marker-end: none; " transform="translate(142.755126953125, 260.8441162109375) scale(1.000000, 0.405542)"/>
  <polyline class="GlobalId-35eYbebvP5gQL84EtRtKCp IfcAnnotation PredefinedType-REVISIONCLOUD" points="0.0,0.0 15.0,0.0" style="marker: url(#revision-cloud-35eYbebvP5gQL84EtRtKCp); stroke: none; " transform="translate(142.755126953125, 254.760986328125) scale(0.780741, 1.000000)"/>
  <polyline class="GlobalId-35eYbebvP5gQL84EtRtKCp IfcAnnotation PredefinedType-REVISIONCLOUD" points="-0.0,0.0 -15.0,0.0" style="marker: url(#revision-cloud-35eYbebvP5gQL84EtRtKCp); stroke: none; " transform="translate(166.1773681640625, 254.760986328125) scale(0.780741, 1.000000)"/>
  <polyline class="GlobalId-35eYbebvP5gQL84EtRtKCp IfcAnnotation PredefinedType-REVISIONCLOUD" points="0.0,0.0 15.0,0.0" style="marker: url(#revision-cloud-35eYbebvP5gQL84EtRtKCp); stroke: none; " transform="translate(142.755126953125, 254.760986328125) scale(0.780741, 1.000000)"/>
  <polyline class="GlobalId-35eYbebvP5gQL84EtRtKCp IfcAnnotation PredefinedType-REVISIONCLOUD" points="0.0,0.0 0.0,15.0" style="marker: url(#revision-cloud-35eYbebvP5gQL84EtRtKCp); stroke: none; marker-end: none; " transform="translate(166.1773681640625, 254.760986328125) scale(1.000000, 0.405542)"/>
  <polyline class="GlobalId-35eYbebvP5gQL84EtRtKCp IfcAnnotation PredefinedType-REVISIONCLOUD" points="-0.0,0.0 -15.0,0.0" style="marker: url(#revision-cloud-35eYbebvP5gQL84EtRtKCp); stroke: none; " transform="translate(166.1773681640625, 260.8441162109375) scale(0.780741, 1.000000)"/>
  <path class="GlobalId-1tsPBTJhH2JPIbbHOnEvhs IfcAnnotation PredefinedType-TEXTLEADER fill-bg" d="M 236.56615614891052 143.16272842930871 L 227.60161757469177 143.16272842930871 L 132.53936171531677 167.87505187327284"/>
  <text dominant-baseline="middle" filter="url(#fill-background)" style="font-size: 0;" text-anchor="start" transform="translate(236.566162109375, 143.1627197265625) rotate(-0.0)">
    <tspan class="GlobalId-1tsPBTJhH2JPIbbHOnEvhs IfcAnnotation PredefinedType-TEXTLEADER fill-bg" dy="0em" x="0" y="0">2X BLOCKING</tspan>
  </text>
  <text dominant-baseline="middle" style="font-size: 0;" text-anchor="start" transform="translate(236.566162109375, 143.1627197265625) rotate(-0.0)">
    <tspan class="GlobalId-1tsPBTJhH2JPIbbHOnEvhs IfcAnnotation PredefinedType-TEXTLEADER fill-bg" dy="0em" x="0" y="0">2X BLOCKING</tspan>
  </text>
  <path class="GlobalId-12EZ2xEzL23veuimhyc_td IfcAnnotation PredefinedType-TEXTLEADER fill-bg" d="M -5634.8938047885895 191.76697954768557 L -5643.858343362808 191.76697954768557 L -5657.064825296402 173.69002327556032"/>
  <text dominant-baseline="baseline" filter="url(#fill-background)" style="font-size: 0;" text-anchor="start" transform="translate(-5634.89404296875, 191.76698303222656) rotate(-0.0)">
    <tspan class="GlobalId-12EZ2xEzL23veuimhyc_td IfcAnnotation PredefinedType-TEXTLEADER fill-bg" dy="0em" x="0" y="0">FIRE RATED SEALANT</tspan>
  </text>
  <text dominant-baseline="baseline" style="font-size: 0;" text-anchor="start" transform="translate(-5634.89404296875, 191.76698303222656) rotate(-0.0)">
    <tspan class="GlobalId-12EZ2xEzL23veuimhyc_td IfcAnnotation PredefinedType-TEXTLEADER fill-bg" dy="0em" x="0" y="0">FIRE RATED SEALANT</tspan>
  </text>
  <path class="GlobalId-01Sx6v7AzDKvkn6xFZKqoK IfcAnnotation PredefinedType-SECTIONLEVEL" d="M 106795.5703125 187.78860473632812 L 106570.5625 187.78860473632812"/>
  <text dominant-baseline="baseline" style="font-size: 0;" text-anchor="start" transform="translate(106795.5703125, 184.28860473632812) rotate(0.0)">
    <tspan class="SECTIONLEVEL" dy="0em" x="0" y="0">RL +7' - 11 7/64&quot;</tspan>
  </text>
  <text dominant-baseline="baseline" style="font-size: 0;" text-anchor="start" transform="translate(-111749.3828125, 791.7381591796875) rotate(-0.0)">
    <tspan class="GlobalId-1kioiBT2b7DxCicvDWL55N IfcAnnotation PredefinedType-TEXT" dy="0em" x="0" y="0">TEXT</tspan>
  </text>
  <text dominant-baseline="baseline" style="font-size: 0;" text-anchor="start" transform="translate(-111696.8046875, 791.7384033203125) rotate(-0.0)">
    <tspan class="GlobalId-32c8IUABr96uysdwtk_kXD IfcAnnotation PredefinedType-TEXT" dy="0em" x="0" y="0">TEXT</tspan>
  </text>
  <text dominant-baseline="baseline" style="font-size: 0;" text-anchor="start" transform="translate(-111912.59375, 791.7383422851562) rotate(-0.0)">
    <tspan class="GlobalId-2eSPs9lUj55AMIYSkvpfFU IfcAnnotation PredefinedType-TEXT" dy="0em" x="0" y="0">TEXT</tspan>
  </text>
  <text dominant-baseline="baseline" style="font-size: 0;" text-anchor="start" transform="translate(150.9796142578125, 258.8714294433594) rotate(-0.0)">
    <tspan class="GlobalId-3hP3kZxyfElv0ADF8rHH3o IfcAnnotation PredefinedType-TEXT" dy="0em" x="0" y="0">(2 HR)</tspan>
  </text>
</svg>
