<?xml version="1.0" encoding="utf-8" ?>
<svg xmlns="http://www.w3.org/2000/svg" xmlns:ev="http://www.w3.org/2001/xml-events" xmlns:ifc="http://www.ifcopenshell.org/ns" xmlns:xlink="http://www.w3.org/1999/xlink" baseProfile="full" data-scale="3&quot;=1'-0&quot;" height="225.00061988830566mm" id="root" version="1.1" viewBox="0 0 225.00061988830566 225.00061988830566" width="225.00061988830566mm">
  <defs/>
  <path class="GlobalId-3YXPkhgaP9$x2O4KjPgts6 IfcAnnotation PredefinedType-SECTIONLEVEL" d="M 1783.1011962890625 148.60525512695312 L 1558.0950927734375 148.60525512695312"/>
  <text dominant-baseline="baseline" style="font-size: 0;" text-anchor="start" transform="translate(1783.1011962890625, 145.10525512695312) rotate(0.0)">
    <tspan class="SECTIONLEVEL" dy="-1em" x="0" y="0">My Storey</tspan>
    <tspan class="SECTIONLEVEL" dy="0em" x="0" y="0">RL +0&quot;</tspan>
  </text>
  <path class="GlobalId-3fNCjAbj58NwXPqCzJuho1 IfcAnnotation PredefinedType-TEXTLEADER fill-bg" d="M 119.15314197540283 132.67300464212894 L 112.38586902618408 132.67300464212894 L 89.95544910430908 147.7504000067711"/>
  <text dominant-baseline="middle" filter="url(#fill-background)" style="font-size: 0;" text-anchor="start" transform="translate(119.15314483642578, 132.67300415039062) rotate(-0.0)">
    <tspan class="GlobalId-3fNCjAbj58NwXPqCzJuho1 IfcAnnotation PredefinedType-TEXTLEADER fill-bg" dy="0em" x="0" y="0">ACOUSTICAL SEALANT</tspan>
  </text>
  <text dominant-baseline="middle" style="font-size: 0;" text-anchor="start" transform="translate(119.15314483642578, 132.67300415039062) rotate(-0.0)">
    <tspan class="GlobalId-3fNCjAbj58NwXPqCzJuho1 IfcAnnotation PredefinedType-TEXTLEADER fill-bg" dy="0em" x="0" y="0">ACOUSTICAL SEALANT</tspan>
  </text>
  <path class="GlobalId-2ZYXf654f7aBiDJFOrY9CR IfcAnnotation PredefinedType-TEXTLEADER fill-bg" d="M 119.15314197540283 124.79737214744091 L 112.38586902618408 124.79737214744091 L 79.32007312774658 143.85398849844933"/>
  <text dominant-baseline="middle" filter="url(#fill-background)" style="font-size: 0;" text-anchor="start" transform="translate(119.15314483642578, 124.79737091064453) rotate(-0.0)">
    <tspan class="GlobalId-2ZYXf654f7aBiDJFOrY9CR IfcAnnotation PredefinedType-TEXTLEADER fill-bg" dy="0em" x="0" y="0">2X WOOD SILL - TREATED IF ON CONCRETE</tspan>
  </text>
  <text dominant-baseline="middle" style="font-size: 0;" text-anchor="start" transform="translate(119.15314483642578, 124.79737091064453) rotate(-0.0)">
    <tspan class="GlobalId-2ZYXf654f7aBiDJFOrY9CR IfcAnnotation PredefinedType-TEXTLEADER fill-bg" dy="0em" x="0" y="0">2X WOOD SILL - TREATED IF ON CONCRETE</tspan>
  </text>
  <path class="GlobalId-3RbXNuGQfAqOKPpDB67cHo IfcAnnotation PredefinedType-TEXTLEADER fill-bg" d="M 119.15314197540283 115.90084037743509 L 112.38586902618408 115.90084037743509 L 91.64154529571533 129.8810262233019"/>
  <text dominant-baseline="middle" filter="url(#fill-background)" style="font-size: 0;" text-anchor="start" transform="translate(119.15314483642578, 115.90083312988281) rotate(-0.0)">
    <tspan class="GlobalId-3RbXNuGQfAqOKPpDB67cHo IfcAnnotation PredefinedType-TEXTLEADER fill-bg" dy="0em" x="0" y="0">WALL BASE AS SCHEDULED</tspan>
  </text>
  <text dominant-baseline="middle" style="font-size: 0;" text-anchor="start" transform="translate(119.15314483642578, 115.90083312988281) rotate(-0.0)">
    <tspan class="GlobalId-3RbXNuGQfAqOKPpDB67cHo IfcAnnotation PredefinedType-TEXTLEADER fill-bg" dy="0em" x="0" y="0">WALL BASE AS SCHEDULED</tspan>
  </text>
  <path class="GlobalId-3EnanGZc99sPb3lIQrUbM1 IfcAnnotation PredefinedType-TEXTLEADER fill-bg" d="M 119.15314197540283 106.56676813960075 L 112.38586902618408 106.56676813960075 L 75.37567615509033 126.38412043452263"/>
  <text dominant-baseline="middle" filter="url(#fill-background)" style="font-size: 0;" text-anchor="start" transform="translate(119.15314483642578, 106.5667724609375) rotate(-0.0)">
    <tspan class="GlobalId-3EnanGZc99sPb3lIQrUbM1 IfcAnnotation PredefinedType-TEXTLEADER fill-bg" dy="0em" x="0" y="0">BATT INSULATION - ENTIRE CAVITY</tspan>
  </text>
  <text dominant-baseline="middle" style="font-size: 0;" text-anchor="start" transform="translate(119.15314483642578, 106.5667724609375) rotate(-0.0)">
    <tspan class="GlobalId-3EnanGZc99sPb3lIQrUbM1 IfcAnnotation PredefinedType-TEXTLEADER fill-bg" dy="0em" x="0" y="0">BATT INSULATION - ENTIRE CAVITY</tspan>
  </text>
  <path class="GlobalId-0oLT5uVoPB8v9ddc0CKtl9 IfcAnnotation PredefinedType-TEXTLEADER fill-bg" d="M 119.15314197540283 95.04498168826103 L 112.38586902618408 95.04498168826103 L 89.95544910430908 110.12237868271768"/>
  <text dominant-baseline="middle" filter="url(#fill-background)" style="font-size: 0;" text-anchor="start" transform="translate(119.15314483642578, 95.04498291015625) rotate(-0.0)">
    <tspan class="GlobalId-0oLT5uVoPB8v9ddc0CKtl9 IfcAnnotation PredefinedType-TEXTLEADER fill-bg" dy="0em" x="0" y="0">5/8&quot; GYP. BD OR CEMENT BACKERBOARD ON WET WALL</tspan>
  </text>
  <text dominant-baseline="middle" style="font-size: 0;" text-anchor="start" transform="translate(119.15314483642578, 95.04498291015625) rotate(-0.0)">
    <tspan class="GlobalId-0oLT5uVoPB8v9ddc0CKtl9 IfcAnnotation PredefinedType-TEXTLEADER fill-bg" dy="0em" x="0" y="0">5/8&quot; GYP. BD OR CEMENT BACKERBOARD ON WET WALL</tspan>
  </text>
</svg>
